dump/sim.vcd
$version Generated by VerilatedVcd $end
$timescale 1ps $end
 $scope module TOP $end
  $var wire 1 3 reset $end
  $var wire 1 4 clock $end
  $var wire 1 5 difftest_logCtrl_begin $end
  $var wire 1 6 difftest_logCtrl_end $end
  $var wire 1 7 difftest_uart_out_valid $end
  $var wire 8 8 difftest_uart_out_ch [7:0] $end
  $var wire 1 9 difftest_uart_in_valid $end
  $var wire 8 : difftest_uart_in_ch [7:0] $end
  $var wire 1 ; difftest_perfCtrl_clean $end
  $var wire 1 < difftest_perfCtrl_dump $end
  $var wire 1 = difftest_exit $end
  $var wire 1 > difftest_step $end
  $scope module SimTop $end
   $var wire 1 3 reset $end
   $var wire 1 4 clock $end
   $var wire 1 5 difftest_logCtrl_begin $end
   $var wire 1 6 difftest_logCtrl_end $end
   $var wire 1 7 difftest_uart_out_valid $end
   $var wire 8 8 difftest_uart_out_ch [7:0] $end
   $var wire 1 9 difftest_uart_in_valid $end
   $var wire 8 : difftest_uart_in_ch [7:0] $end
   $var wire 1 ; difftest_perfCtrl_clean $end
   $var wire 1 < difftest_perfCtrl_dump $end
   $var wire 1 = difftest_exit $end
   $var wire 1 > difftest_step $end
   $var wire 64 # cnt [63:0] $end
   $scope module u_DifftestTrapEvent $end
    $var wire 1 4 clock $end
    $var wire 1 @ enable $end
    $var wire 1 A io_hasTrap $end
    $var wire 64 # io_cycleCnt [63:0] $end
    $var wire 64 B io_instrCnt [63:0] $end
    $var wire 1 A io_hasWFI $end
    $var wire 32 D io_code [31:0] $end
    $var wire 64 B io_pc [63:0] $end
    $var wire 8 E io_coreid [7:0] $end
   $upscope $end
   $scope module u_top $end
    $var wire 1 4 clk $end
    $var wire 1 ? rst_n $end
    $var wire 32 % opt [31:0] $end
    $var wire 4 & a [3:0] $end
    $var wire 32 % b [31:0] $end
    $var wire 1 ' r_enable $end
    $var wire 64 ( r_index [63:0] $end
    $var wire 64 * r_data [63:0] $end
    $var wire 1 , w_enable $end
    $var wire 64 - w_index [63:0] $end
    $var wire 64 / w_data [63:0] $end
    $var wire 64 1 w_mask [63:0] $end
    $var wire 1 F enable $end
    $scope module mem $end
     $var wire 1 ' r_enable $end
     $var wire 64 ( r_index [63:0] $end
     $var wire 64 * r_data [63:0] $end
     $var wire 1 , w_enable $end
     $var wire 64 - w_index [63:0] $end
     $var wire 64 / w_data [63:0] $end
     $var wire 64 1 w_mask [63:0] $end
     $var wire 1 @ enable $end
     $var wire 1 4 clock $end
    $upscope $end
   $upscope $end
  $upscope $end
 $upscope $end
$enddefinitions $end


#0
b0000000000000000000000000000000000000000000000000000000000000001 #
b00000000000000000000000000000000 %
b0001 &
0'
b0000000000000000000000000000000000000000000000000000000000000000 (
b0000000000000000000000000000000000000000000000000000000000000000 *
0,
b0000000000000000000000000000000000000000000000000000000000000000 -
b0000000000000000000000000000000000000000000000000000000000000000 /
b0000000000000000000000000000000000000000000000000000000000000000 1
03
14
05
¸6
07
b00000000 8
09
b00000000 :
0;
0<
0=
1>
1?
1@
0A
b0000000000000000000000000000000000000000000000000000000000000000 B
b00000000000000000000000000000000 D
b00000000 E
0F
#1
b0000000000000000000000000000000000000000000000000000000000000010 #
b0010 &
#2
b0000000000000000000000000000000000000000000000000000000000000011 #
b0011 &
#3
b0000000000000000000000000000000000000000000000000000000000000100 #
b0100 &
#4
b0000000000000000000000000000000000000000000000000000000000000101 #
b0101 &
#5
b0000000000000000000000000000000000000000000000000000000000000110 #
b0110 &
#6
b0000000000000000000000000000000000000000000000000000000000000111 #
b0111 &
#7
b0000000000000000000000000000000000000000000000000000000000001000 #
b1000 &
#8
b0000000000000000000000000000000000000000000000000000000000001001 #
b00000000000000000000000000000001 %
#9
b0000000000000000000000000000000000000000000000000000000000001010 #
#10
b0000000000000000000000000000000000000000000000000000000000001011 #
#11
b0000000000000000000000000000000000000000000000000000000000001100 #
#12
b0000000000000000000000000000000000000000000000000000000000001101 #
#13
b0000000000000000000000000000000000000000000000000000000000001110 #
#14
b0000000000000000000000000000000000000000000000000000000000001111 #
#15
b0000000000000000000000000000000000000000000000000000000000010000 #
#16
b0000000000000000000000000000000000000000000000000000000000010001 #
#17
b0000000000000000000000000000000000000000000000000000000000010010 #
#18
b0000000000000000000000000000000000000000000000000000000000010011 #
#19
b0000000000000000000000000000000000000000000000000000000000010100 #
#20
b0000000000000000000000000000000000000000000000000000000000010101 #
#21
b0000000000000000000000000000000000000000000000000000000000010110 #
#22
b0000000000000000000000000000000000000000000000000000000000010111 #
#23
b0000000000000000000000000000000000000000000000000000000000011000 #
#24
b0000000000000000000000000000000000000000000000000000000000011001 #
#25
b0000000000000000000000000000000000000000000000000000000000011010 #
#26
b0000000000000000000000000000000000000000000000000000000000011011 #
#27
b0000000000000000000000000000000000000000000000000000000000011100 #
#28
b0000000000000000000000000000000000000000000000000000000000011101 #
#29
b0000000000000000000000000000000000000000000000000000000000011110 #
#30
b0000000000000000000000000000000000000000000000000000000000011111 #
#31
b0000000000000000000000000000000000000000000000000000000000100000 #
#32
b0000000000000000000000000000000000000000000000000000000000100001 #
#33
b0000000000000000000000000000000000000000000000000000000000100010 #
#34
b0000000000000000000000000000000000000000000000000000000000100011 #
#35
b0000000000000000000000000000000000000000000000000000000000100100 #
#36
b0000000000000000000000000000000000000000000000000000000000100101 #
#37
b0000000000000000000000000000000000000000000000000000000000100110 #
#38
b0000000000000000000000000000000000000000000000000000000000100111 #
#39
b0000000000000000000000000000000000000000000000000000000000101000 #
#40
b0000000000000000000000000000000000000000000000000000000000101001 #
#41
b0000000000000000000000000000000000000000000000000000000000101010 #
#42
b0000000000000000000000000000000000000000000000000000000000101011 #
#43
b0000000000000000000000000000000000000000000000000000000000101100 #
#44
b0000000000000000000000000000000000000000000000000000000000101101 #
#45
b0000000000000000000000000000000000000000000000000000000000101110 #
#46
b0000000000000000000000000000000000000000000000000000000000101111 #
#47
b0000000000000000000000000000000000000000000000000000000000110000 #
#48
b0000000000000000000000000000000000000000000000000000000000110001 #
#49
b0000000000000000000000000000000000000000000000000000000000110010 #
#50
b0000000000000000000000000000000000000000000000000000000000110011 #
#51
b0000000000000000000000000000000000000000000000000000000000110100 #
#52
b0000000000000000000000000000000000000000000000000000000000110101 #
#53
b0000000000000000000000000000000000000000000000000000000000110110 #
#54
b0000000000000000000000000000000000000000000000000000000000110111 #
#55
b0000000000000000000000000000000000000000000000000000000000111000 #
#56
b0000000000000000000000000000000000000000000000000000000000111001 #
#57
b0000000000000000000000000000000000000000000000000000000000111010 #
#58
b0000000000000000000000000000000000000000000000000000000000111011 #
#59
b0000000000000000000000000000000000000000000000000000000000111100 #
#60
b0000000000000000000000000000000000000000000000000000000000111101 #
#61
b0000000000000000000000000000000000000000000000000000000000111110 #
#62
b0000000000000000000000000000000000000000000000000000000000111111 #
#63
b0000000000000000000000000000000000000000000000000000000001000000 #
#64
b0000000000000000000000000000000000000000000000000000000001000001 #
#65
b0000000000000000000000000000000000000000000000000000000001000010 #
#66
b0000000000000000000000000000000000000000000000000000000001000011 #
#67
b0000000000000000000000000000000000000000000000000000000001000100 #
#68
b0000000000000000000000000000000000000000000000000000000001000101 #
#69
b0000000000000000000000000000000000000000000000000000000001000110 #
#70
b0000000000000000000000000000000000000000000000000000000001000111 #
#71
b0000000000000000000000000000000000000000000000000000000001001000 #
#72
b0000000000000000000000000000000000000000000000000000000001001001 #
#73
b0000000000000000000000000000000000000000000000000000000001001010 #
#74
b0000000000000000000000000000000000000000000000000000000001001011 #
#75
b0000000000000000000000000000000000000000000000000000000001001100 #
#76
b0000000000000000000000000000000000000000000000000000000001001101 #
#77
b0000000000000000000000000000000000000000000000000000000001001110 #
#78
b0000000000000000000000000000000000000000000000000000000001001111 #
#79
b0000000000000000000000000000000000000000000000000000000001010000 #
#80
b0000000000000000000000000000000000000000000000000000000001010001 #
#81
b0000000000000000000000000000000000000000000000000000000001010010 #
#82
b0000000000000000000000000000000000000000000000000000000001010011 #
#83
b0000000000000000000000000000000000000000000000000000000001010100 #
#84
b0000000000000000000000000000000000000000000000000000000001010101 #
#85
b0000000000000000000000000000000000000000000000000000000001010110 #
#86
b0000000000000000000000000000000000000000000000000000000001010111 #
#87
b0000000000000000000000000000000000000000000000000000000001011000 #
#88
b0000000000000000000000000000000000000000000000000000000001011001 #
#89
b0000000000000000000000000000000000000000000000000000000001011010 #
#90
b0000000000000000000000000000000000000000000000000000000001011011 #
#91
b0000000000000000000000000000000000000000000000000000000001011100 #
#92
b0000000000000000000000000000000000000000000000000000000001011101 #
#93
b0000000000000000000000000000000000000000000000000000000001011110 #
#94
b0000000000000000000000000000000000000000000000000000000001011111 #
#95
b0000000000000000000000000000000000000000000000000000000001100000 #
#96
b0000000000000000000000000000000000000000000000000000000001100001 #
#97
b0000000000000000000000000000000000000000000000000000000001100010 #
#98
b0000000000000000000000000000000000000000000000000000000001100011 #
#99
b0000000000000000000000000000000000000000000000000000000001100100 #
#100
b0000000000000000000000000000000000000000000000000000000001100101 #
#101
b0000000000000000000000000000000000000000000000000000000001100110 #
#102
b0000000000000000000000000000000000000000000000000000000001100111 #
#103
b0000000000000000000000000000000000000000000000000000000001101000 #
#104
b0000000000000000000000000000000000000000000000000000000001101001 #
#105
b0000000000000000000000000000000000000000000000000000000001101010 #
#106
b0000000000000000000000000000000000000000000000000000000001101011 #
#107
b0000000000000000000000000000000000000000000000000000000001101100 #
#108
b0000000000000000000000000000000000000000000000000000000001101101 #
#109
b0000000000000000000000000000000000000000000000000000000001101110 #
#110
b0000000000000000000000000000000000000000000000000000000001101111 #
#111
b0000000000000000000000000000000000000000000000000000000001110000 #
#112
b0000000000000000000000000000000000000000000000000000000001110001 #
#113
b0000000000000000000000000000000000000000000000000000000001110010 #
#114
b0000000000000000000000000000000000000000000000000000000001110011 #
#115
b0000000000000000000000000000000000000000000000000000000001110100 #
#116
b0000000000000000000000000000000000000000000000000000000001110101 #
#117
b0000000000000000000000000000000000000000000000000000000001110110 #
#118
b0000000000000000000000000000000000000000000000000000000001110111 #
#119
b0000000000000000000000000000000000000000000000000000000001111000 #
#120
b0000000000000000000000000000000000000000000000000000000001111001 #
#121
b0000000000000000000000000000000000000000000000000000000001111010 #
#122
b0000000000000000000000000000000000000000000000000000000001111011 #
#123
b0000000000000000000000000000000000000000000000000000000001111100 #
#124
b0000000000000000000000000000000000000000000000000000000001111101 #
#125
b0000000000000000000000000000000000000000000000000000000001111110 #
#126
b0000000000000000000000000000000000000000000000000000000001111111 #
#127
b0000000000000000000000000000000000000000000000000000000010000000 #
#128
b0000000000000000000000000000000000000000000000000000000010000001 #
#129
b0000000000000000000000000000000000000000000000000000000010000010 #
#130
b0000000000000000000000000000000000000000000000000000000010000011 #
#131
b0000000000000000000000000000000000000000000000000000000010000100 #
#132
b0000000000000000000000000000000000000000000000000000000010000101 #
#133
b0000000000000000000000000000000000000000000000000000000010000110 #
#134
b0000000000000000000000000000000000000000000000000000000010000111 #
#135
b0000000000000000000000000000000000000000000000000000000010001000 #
#136
b0000000000000000000000000000000000000000000000000000000010001001 #
#137
b0000000000000000000000000000000000000000000000000000000010001010 #
#138
b0000000000000000000000000000000000000000000000000000000010001011 #
#139
b0000000000000000000000000000000000000000000000000000000010001100 #
#140
b0000000000000000000000000000000000000000000000000000000010001101 #
#141
b0000000000000000000000000000000000000000000000000000000010001110 #
#142
b0000000000000000000000000000000000000000000000000000000010001111 #
#143
b0000000000000000000000000000000000000000000000000000000010010000 #
#144
b0000000000000000000000000000000000000000000000000000000010010001 #
#145
b0000000000000000000000000000000000000000000000000000000010010010 #
#146
b0000000000000000000000000000000000000000000000000000000010010011 #
#147
b0000000000000000000000000000000000000000000000000000000010010100 #
#148
b0000000000000000000000000000000000000000000000000000000010010101 #
#149
b0000000000000000000000000000000000000000000000000000000010010110 #
#150
b0000000000000000000000000000000000000000000000000000000010010111 #
#151
b0000000000000000000000000000000000000000000000000000000010011000 #
#152
b0000000000000000000000000000000000000000000000000000000010011001 #
#153
b0000000000000000000000000000000000000000000000000000000010011010 #
#154
b0000000000000000000000000000000000000000000000000000000010011011 #
#155
b0000000000000000000000000000000000000000000000000000000010011100 #
#156
b0000000000000000000000000000000000000000000000000000000010011101 #
#157
b0000000000000000000000000000000000000000000000000000000010011110 #
#158
b0000000000000000000000000000000000000000000000000000000010011111 #
#159
b0000000000000000000000000000000000000000000000000000000010100000 #
#160
b0000000000000000000000000000000000000000000000000000000010100001 #
#161
b0000000000000000000000000000000000000000000000000000000010100010 #
#162
b0000000000000000000000000000000000000000000000000000000010100011 #
#163
b0000000000000000000000000000000000000000000000000000000010100100 #
#164
b0000000000000000000000000000000000000000000000000000000010100101 #
#165
b0000000000000000000000000000000000000000000000000000000010100110 #
#166
b0000000000000000000000000000000000000000000000000000000010100111 #
#167
b0000000000000000000000000000000000000000000000000000000010101000 #
#168
b0000000000000000000000000000000000000000000000000000000010101001 #
#169
b0000000000000000000000000000000000000000000000000000000010101010 #
#170
b0000000000000000000000000000000000000000000000000000000010101011 #
#171
b0000000000000000000000000000000000000000000000000000000010101100 #
#172
b0000000000000000000000000000000000000000000000000000000010101101 #
#173
b0000000000000000000000000000000000000000000000000000000010101110 #
#174
b0000000000000000000000000000000000000000000000000000000010101111 #
#175
b0000000000000000000000000000000000000000000000000000000010110000 #
#176
b0000000000000000000000000000000000000000000000000000000010110001 #
#177
b0000000000000000000000000000000000000000000000000000000010110010 #
#178
b0000000000000000000000000000000000000000000000000000000010110011 #
#179
b0000000000000000000000000000000000000000000000000000000010110100 #
#180
b0000000000000000000000000000000000000000000000000000000010110101 #
#181
b0000000000000000000000000000000000000000000000000000000010110110 #
#182
b0000000000000000000000000000000000000000000000000000000010110111 #
#183
b0000000000000000000000000000000000000000000000000000000010111000 #
#184
b0000000000000000000000000000000000000000000000000000000010111001 #
#185
b0000000000000000000000000000000000000000000000000000000010111010 #
#186
b0000000000000000000000000000000000000000000000000000000010111011 #
#187
b0000000000000000000000000000000000000000000000000000000010111100 #
#188
b0000000000000000000000000000000000000000000000000000000010111101 #
#189
b0000000000000000000000000000000000000000000000000000000010111110 #
#190
b0000000000000000000000000000000000000000000000000000000010111111 #
#191
b0000000000000000000000000000000000000000000000000000000011000000 #
#192
b0000000000000000000000000000000000000000000000000000000011000001 #
#193
b0000000000000000000000000000000000000000000000000000000011000010 #
#194
b0000000000000000000000000000000000000000000000000000000011000011 #
#195
b0000000000000000000000000000000000000000000000000000000011000100 #
#196
b0000000000000000000000000000000000000000000000000000000011000101 #
#197
b0000000000000000000000000000000000000000000000000000000011000110 #
#198
b0000000000000000000000000000000000000000000000000000000011000111 #
#199
b0000000000000000000000000000000000000000000000000000000011001000 #
#200
b0000000000000000000000000000000000000000000000000000000011001001 #
#201
b0000000000000000000000000000000000000000000000000000000011001010 #
#202
b0000000000000000000000000000000000000000000000000000000011001011 #
#203
b0000000000000000000000000000000000000000000000000000000011001100 #
#204
b0000000000000000000000000000000000000000000000000000000011001101 #
#205
b0000000000000000000000000000000000000000000000000000000011001110 #
#206
b0000000000000000000000000000000000000000000000000000000011001111 #
#207
b0000000000000000000000000000000000000000000000000000000011010000 #
#208
b0000000000000000000000000000000000000000000000000000000011010001 #
#209
b0000000000000000000000000000000000000000000000000000000011010010 #
#210
b0000000000000000000000000000000000000000000000000000000011010011 #
#211
b0000000000000000000000000000000000000000000000000000000011010100 #
#212
b0000000000000000000000000000000000000000000000000000000011010101 #
#213
b0000000000000000000000000000000000000000000000000000000011010110 #
#214
b0000000000000000000000000000000000000000000000000000000011010111 #
#215
b0000000000000000000000000000000000000000000000000000000011011000 #
#216
b0000000000000000000000000000000000000000000000000000000011011001 #
#217
b0000000000000000000000000000000000000000000000000000000011011010 #
#218
b0000000000000000000000000000000000000000000000000000000011011011 #
#219
b0000000000000000000000000000000000000000000000000000000011011100 #
#220
b0000000000000000000000000000000000000000000000000000000011011101 #
#221
b0000000000000000000000000000000000000000000000000000000011011110 #
#222
b0000000000000000000000000000000000000000000000000000000011011111 #
#223
b0000000000000000000000000000000000000000000000000000000011100000 #
#224
b0000000000000000000000000000000000000000000000000000000011100001 #
#225
b0000000000000000000000000000000000000000000000000000000011100010 #
#226
b0000000000000000000000000000000000000000000000000000000011100011 #
#227
b0000000000000000000000000000000000000000000000000000000011100100 #
#228
b0000000000000000000000000000000000000000000000000000000011100101 #
#229
b0000000000000000000000000000000000000000000000000000000011100110 #
#230
b0000000000000000000000000000000000000000000000000000000011100111 #
#231
b0000000000000000000000000000000000000000000000000000000011101000 #
#232
b0000000000000000000000000000000000000000000000000000000011101001 #
#233
b0000000000000000000000000000000000000000000000000000000011101010 #
#234
b0000000000000000000000000000000000000000000000000000000011101011 #
#235
b0000000000000000000000000000000000000000000000000000000011101100 #
#236
b0000000000000000000000000000000000000000000000000000000011101101 #
#237
b0000000000000000000000000000000000000000000000000000000011101110 #
#238
b0000000000000000000000000000000000000000000000000000000011101111 #
#239
b0000000000000000000000000000000000000000000000000000000011110000 #
#240
b0000000000000000000000000000000000000000000000000000000011110001 #
#241
b0000000000000000000000000000000000000000000000000000000011110010 #
#242
b0000000000000000000000000000000000000000000000000000000011110011 #
#243
b0000000000000000000000000000000000000000000000000000000011110100 #
#244
b0000000000000000000000000000000000000000000000000000000011110101 #
#245
b0000000000000000000000000000000000000000000000000000000011110110 #
#246
b0000000000000000000000000000000000000000000000000000000011110111 #
#247
b0000000000000000000000000000000000000000000000000000000011111000 #
#248
b0000000000000000000000000000000000000000000000000000000011111001 #
#249
b0000000000000000000000000000000000000000000000000000000011111010 #
#250
b0000000000000000000000000000000000000000000000000000000011111011 #
#251
b0000000000000000000000000000000000000000000000000000000011111100 #
#252
b0000000000000000000000000000000000000000000000000000000011111101 #
#253
b0000000000000000000000000000000000000000000000000000000011111110 #
#254
b0000000000000000000000000000000000000000000000000000000011111111 #
#255
b0000000000000000000000000000000000000000000000000000000100000000 #
#256
b0000000000000000000000000000000000000000000000000000000100000001 #
#257
b0000000000000000000000000000000000000000000000000000000100000010 #
#258
b0000000000000000000000000000000000000000000000000000000100000011 #
#259
b0000000000000000000000000000000000000000000000000000000100000100 #
#260
b0000000000000000000000000000000000000000000000000000000100000101 #
#261
b0000000000000000000000000000000000000000000000000000000100000110 #
#262
b0000000000000000000000000000000000000000000000000000000100000111 #
#263
b0000000000000000000000000000000000000000000000000000000100001000 #
#264
b0000000000000000000000000000000000000000000000000000000100001001 #
#265
b0000000000000000000000000000000000000000000000000000000100001010 #
#266
b0000000000000000000000000000000000000000000000000000000100001011 #
#267
b0000000000000000000000000000000000000000000000000000000100001100 #
#268
b0000000000000000000000000000000000000000000000000000000100001101 #
#269
b0000000000000000000000000000000000000000000000000000000100001110 #
#270
b0000000000000000000000000000000000000000000000000000000100001111 #
#271
b0000000000000000000000000000000000000000000000000000000100010000 #
#272
b0000000000000000000000000000000000000000000000000000000100010001 #
#273
b0000000000000000000000000000000000000000000000000000000100010010 #
#274
b0000000000000000000000000000000000000000000000000000000100010011 #
#275
b0000000000000000000000000000000000000000000000000000000100010100 #
#276
b0000000000000000000000000000000000000000000000000000000100010101 #
#277
b0000000000000000000000000000000000000000000000000000000100010110 #
#278
b0000000000000000000000000000000000000000000000000000000100010111 #
#279
b0000000000000000000000000000000000000000000000000000000100011000 #
#280
b0000000000000000000000000000000000000000000000000000000100011001 #
#281
b0000000000000000000000000000000000000000000000000000000100011010 #
#282
b0000000000000000000000000000000000000000000000000000000100011011 #
#283
b0000000000000000000000000000000000000000000000000000000100011100 #
#284
b0000000000000000000000000000000000000000000000000000000100011101 #
#285
b0000000000000000000000000000000000000000000000000000000100011110 #
#286
b0000000000000000000000000000000000000000000000000000000100011111 #
#287
b0000000000000000000000000000000000000000000000000000000100100000 #
#288
b0000000000000000000000000000000000000000000000000000000100100001 #
#289
b0000000000000000000000000000000000000000000000000000000100100010 #
#290
b0000000000000000000000000000000000000000000000000000000100100011 #
#291
b0000000000000000000000000000000000000000000000000000000100100100 #
#292
b0000000000000000000000000000000000000000000000000000000100100101 #
#293
b0000000000000000000000000000000000000000000000000000000100100110 #
#294
b0000000000000000000000000000000000000000000000000000000100100111 #
#295
b0000000000000000000000000000000000000000000000000000000100101000 #
#296
b0000000000000000000000000000000000000000000000000000000100101001 #
#297
b0000000000000000000000000000000000000000000000000000000100101010 #
#298
b0000000000000000000000000000000000000000000000000000000100101011 #
#299
b0000000000000000000000000000000000000000000000000000000100101100 #
#300
b0000000000000000000000000000000000000000000000000000000100101101 #
#301
b0000000000000000000000000000000000000000000000000000000100101110 #
#302
b0000000000000000000000000000000000000000000000000000000100101111 #
#303
b0000000000000000000000000000000000000000000000000000000100110000 #
#304
b0000000000000000000000000000000000000000000000000000000100110001 #
#305
b0000000000000000000000000000000000000000000000000000000100110010 #
#306
b0000000000000000000000000000000000000000000000000000000100110011 #
#307
b0000000000000000000000000000000000000000000000000000000100110100 #
#308
b0000000000000000000000000000000000000000000000000000000100110101 #
#309
b0000000000000000000000000000000000000000000000000000000100110110 #
#310
b0000000000000000000000000000000000000000000000000000000100110111 #
#311
b0000000000000000000000000000000000000000000000000000000100111000 #
#312
b0000000000000000000000000000000000000000000000000000000100111001 #
#313
b0000000000000000000000000000000000000000000000000000000100111010 #
#314
b0000000000000000000000000000000000000000000000000000000100111011 #
#315
b0000000000000000000000000000000000000000000000000000000100111100 #
#316
b0000000000000000000000000000000000000000000000000000000100111101 #
#317
b0000000000000000000000000000000000000000000000000000000100111110 #
#318
b0000000000000000000000000000000000000000000000000000000100111111 #
#319
b0000000000000000000000000000000000000000000000000000000101000000 #
#320
b0000000000000000000000000000000000000000000000000000000101000001 #
#321
b0000000000000000000000000000000000000000000000000000000101000010 #
#322
b0000000000000000000000000000000000000000000000000000000101000011 #
#323
b0000000000000000000000000000000000000000000000000000000101000100 #
#324
b0000000000000000000000000000000000000000000000000000000101000101 #
#325
b0000000000000000000000000000000000000000000000000000000101000110 #
#326
b0000000000000000000000000000000000000000000000000000000101000111 #
#327
b0000000000000000000000000000000000000000000000000000000101001000 #
#328
b0000000000000000000000000000000000000000000000000000000101001001 #
#329
b0000000000000000000000000000000000000000000000000000000101001010 #
#330
b0000000000000000000000000000000000000000000000000000000101001011 #
#331
b0000000000000000000000000000000000000000000000000000000101001100 #
#332
b0000000000000000000000000000000000000000000000000000000101001101 #
#333
b0000000000000000000000000000000000000000000000000000000101001110 #
#334
b0000000000000000000000000000000000000000000000000000000101001111 #
#335
b0000000000000000000000000000000000000000000000000000000101010000 #
#336
b0000000000000000000000000000000000000000000000000000000101010001 #
#337
b0000000000000000000000000000000000000000000000000000000101010010 #
#338
b0000000000000000000000000000000000000000000000000000000101010011 #
#339
b0000000000000000000000000000000000000000000000000000000101010100 #
#340
b0000000000000000000000000000000000000000000000000000000101010101 #
#341
b0000000000000000000000000000000000000000000000000000000101010110 #
#342
b0000000000000000000000000000000000000000000000000000000101010111 #
#343
b0000000000000000000000000000000000000000000000000000000101011000 #
#344
b0000000000000000000000000000000000000000000000000000000101011001 #
#345
b0000000000000000000000000000000000000000000000000000000101011010 #
#346
b0000000000000000000000000000000000000000000000000000000101011011 #
#347
b0000000000000000000000000000000000000000000000000000000101011100 #
#348
b0000000000000000000000000000000000000000000000000000000101011101 #
#349
b0000000000000000000000000000000000000000000000000000000101011110 #
#350
b0000000000000000000000000000000000000000000000000000000101011111 #
#351
b0000000000000000000000000000000000000000000000000000000101100000 #
#352
b0000000000000000000000000000000000000000000000000000000101100001 #
#353
b0000000000000000000000000000000000000000000000000000000101100010 #
#354
b0000000000000000000000000000000000000000000000000000000101100011 #
#355
b0000000000000000000000000000000000000000000000000000000101100100 #
#356
b0000000000000000000000000000000000000000000000000000000101100101 #
#357
b0000000000000000000000000000000000000000000000000000000101100110 #
#358
b0000000000000000000000000000000000000000000000000000000101100111 #
#359
b0000000000000000000000000000000000000000000000000000000101101000 #
#360
b0000000000000000000000000000000000000000000000000000000101101001 #
#361
b0000000000000000000000000000000000000000000000000000000101101010 #
#362
b0000000000000000000000000000000000000000000000000000000101101011 #
#363
b0000000000000000000000000000000000000000000000000000000101101100 #
#364
b0000000000000000000000000000000000000000000000000000000101101101 #
#365
b0000000000000000000000000000000000000000000000000000000101101110 #
#366
b0000000000000000000000000000000000000000000000000000000101101111 #
#367
b0000000000000000000000000000000000000000000000000000000101110000 #
#368
b0000000000000000000000000000000000000000000000000000000101110001 #
#369
b0000000000000000000000000000000000000000000000000000000101110010 #
#370
b0000000000000000000000000000000000000000000000000000000101110011 #
#371
b0000000000000000000000000000000000000000000000000000000101110100 #
#372
b0000000000000000000000000000000000000000000000000000000101110101 #
#373
b0000000000000000000000000000000000000000000000000000000101110110 #
#374
b0000000000000000000000000000000000000000000000000000000101110111 #
#375
b0000000000000000000000000000000000000000000000000000000101111000 #
#376
b0000000000000000000000000000000000000000000000000000000101111001 #
#377
b0000000000000000000000000000000000000000000000000000000101111010 #
#378
b0000000000000000000000000000000000000000000000000000000101111011 #
#379
b0000000000000000000000000000000000000000000000000000000101111100 #
#380
b0000000000000000000000000000000000000000000000000000000101111101 #
#381
b0000000000000000000000000000000000000000000000000000000101111110 #
#382
b0000000000000000000000000000000000000000000000000000000101111111 #
#383
b0000000000000000000000000000000000000000000000000000000110000000 #
#384
b0000000000000000000000000000000000000000000000000000000110000001 #
#385
b0000000000000000000000000000000000000000000000000000000110000010 #
#386
b0000000000000000000000000000000000000000000000000000000110000011 #
#387
b0000000000000000000000000000000000000000000000000000000110000100 #
#388
b0000000000000000000000000000000000000000000000000000000110000101 #
#389
b0000000000000000000000000000000000000000000000000000000110000110 #
#390
b0000000000000000000000000000000000000000000000000000000110000111 #
#391
b0000000000000000000000000000000000000000000000000000000110001000 #
#392
b0000000000000000000000000000000000000000000000000000000110001001 #
#393
b0000000000000000000000000000000000000000000000000000000110001010 #
#394
b0000000000000000000000000000000000000000000000000000000110001011 #
#395
b0000000000000000000000000000000000000000000000000000000110001100 #
#396
b0000000000000000000000000000000000000000000000000000000110001101 #
#397
b0000000000000000000000000000000000000000000000000000000110001110 #
#398
b0000000000000000000000000000000000000000000000000000000110001111 #
#399
b0000000000000000000000000000000000000000000000000000000110010000 #
#400
b0000000000000000000000000000000000000000000000000000000110010001 #
#401
b0000000000000000000000000000000000000000000000000000000110010010 #
#402
b0000000000000000000000000000000000000000000000000000000110010011 #
#403
b0000000000000000000000000000000000000000000000000000000110010100 #
#404
b0000000000000000000000000000000000000000000000000000000110010101 #
#405
b0000000000000000000000000000000000000000000000000000000110010110 #
#406
b0000000000000000000000000000000000000000000000000000000110010111 #
#407
b0000000000000000000000000000000000000000000000000000000110011000 #
#408
b0000000000000000000000000000000000000000000000000000000110011001 #
#409
b0000000000000000000000000000000000000000000000000000000110011010 #
#410
b0000000000000000000000000000000000000000000000000000000110011011 #
#411
b0000000000000000000000000000000000000000000000000000000110011100 #
#412
b0000000000000000000000000000000000000000000000000000000110011101 #
#413
b0000000000000000000000000000000000000000000000000000000110011110 #
#414
b0000000000000000000000000000000000000000000000000000000110011111 #
#415
b0000000000000000000000000000000000000000000000000000000110100000 #
#416
b0000000000000000000000000000000000000000000000000000000110100001 #
#417
b0000000000000000000000000000000000000000000000000000000110100010 #
#418
b0000000000000000000000000000000000000000000000000000000110100011 #
#419
b0000000000000000000000000000000000000000000000000000000110100100 #
#420
b0000000000000000000000000000000000000000000000000000000110100101 #
#421
b0000000000000000000000000000000000000000000000000000000110100110 #
#422
b0000000000000000000000000000000000000000000000000000000110100111 #
#423
b0000000000000000000000000000000000000000000000000000000110101000 #
#424
b0000000000000000000000000000000000000000000000000000000110101001 #
#425
b0000000000000000000000000000000000000000000000000000000110101010 #
#426
b0000000000000000000000000000000000000000000000000000000110101011 #
#427
b0000000000000000000000000000000000000000000000000000000110101100 #
#428
b0000000000000000000000000000000000000000000000000000000110101101 #
#429
b0000000000000000000000000000000000000000000000000000000110101110 #
#430
b0000000000000000000000000000000000000000000000000000000110101111 #
#431
b0000000000000000000000000000000000000000000000000000000110110000 #
#432
b0000000000000000000000000000000000000000000000000000000110110001 #
#433
b0000000000000000000000000000000000000000000000000000000110110010 #
#434
b0000000000000000000000000000000000000000000000000000000110110011 #
#435
b0000000000000000000000000000000000000000000000000000000110110100 #
#436
b0000000000000000000000000000000000000000000000000000000110110101 #
#437
b0000000000000000000000000000000000000000000000000000000110110110 #
#438
b0000000000000000000000000000000000000000000000000000000110110111 #
#439
b0000000000000000000000000000000000000000000000000000000110111000 #
#440
b0000000000000000000000000000000000000000000000000000000110111001 #
#441
b0000000000000000000000000000000000000000000000000000000110111010 #
#442
b0000000000000000000000000000000000000000000000000000000110111011 #
#443
b0000000000000000000000000000000000000000000000000000000110111100 #
#444
b0000000000000000000000000000000000000000000000000000000110111101 #
#445
b0000000000000000000000000000000000000000000000000000000110111110 #
#446
b0000000000000000000000000000000000000000000000000000000110111111 #
#447
b0000000000000000000000000000000000000000000000000000000111000000 #
#448
b0000000000000000000000000000000000000000000000000000000111000001 #
#449
b0000000000000000000000000000000000000000000000000000000111000010 #
#450
b0000000000000000000000000000000000000000000000000000000111000011 #
#451
b0000000000000000000000000000000000000000000000000000000111000100 #
#452
b0000000000000000000000000000000000000000000000000000000111000101 #
#453
b0000000000000000000000000000000000000000000000000000000111000110 #
#454
b0000000000000000000000000000000000000000000000000000000111000111 #
#455
b0000000000000000000000000000000000000000000000000000000111001000 #
#456
b0000000000000000000000000000000000000000000000000000000111001001 #
#457
b0000000000000000000000000000000000000000000000000000000111001010 #
#458
b0000000000000000000000000000000000000000000000000000000111001011 #
#459
b0000000000000000000000000000000000000000000000000000000111001100 #
#460
b0000000000000000000000000000000000000000000000000000000111001101 #
