dump/sim.vcd
$version Generated by VerilatedVcd $end
$timescale 1ps $end
 $scope module TOP $end
  $var wire 1 3 reset $end
  $var wire 1 4 clock $end
  $var wire 1 5 difftest_logCtrl_begin $end
  $var wire 1 6 difftest_logCtrl_end $end
  $var wire 1 7 difftest_uart_out_valid $end
  $var wire 8 8 difftest_uart_out_ch [7:0] $end
  $var wire 1 9 difftest_uart_in_valid $end
  $var wire 8 : difftest_uart_in_ch [7:0] $end
  $var wire 1 ; difftest_perfCtrl_clean $end
  $var wire 1 < difftest_perfCtrl_dump $end
  $var wire 1 = difftest_exit $end
  $var wire 1 > difftest_step $end
  $scope module SimTop $end
   $var wire 1 3 reset $end
   $var wire 1 4 clock $end
   $var wire 1 5 difftest_logCtrl_begin $end
   $var wire 1 6 difftest_logCtrl_end $end
   $var wire 1 7 difftest_uart_out_valid $end
   $var wire 8 8 difftest_uart_out_ch [7:0] $end
   $var wire 1 9 difftest_uart_in_valid $end
   $var wire 8 : difftest_uart_in_ch [7:0] $end
   $var wire 1 ; difftest_perfCtrl_clean $end
   $var wire 1 < difftest_perfCtrl_dump $end
   $var wire 1 = difftest_exit $end
   $var wire 1 > difftest_step $end
   $var wire 64 # cnt [63:0] $end
   $scope module u_DifftestTrapEvent $end
    $var wire 1 4 clock $end
    $var wire 1 @ enable $end
    $var wire 1 A io_hasTrap $end
    $var wire 64 # io_cycleCnt [63:0] $end
    $var wire 64 B io_instrCnt [63:0] $end
    $var wire 1 A io_hasWFI $end
    $var wire 32 D io_code [31:0] $end
    $var wire 64 B io_pc [63:0] $end
    $var wire 8 E io_coreid [7:0] $end
   $upscope $end
   $scope module u_top $end
    $var wire 1 4 clk $end
    $var wire 1 ? rst_n $end
    $var wire 32 % opt [31:0] $end
    $var wire 4 & a [3:0] $end
    $var wire 32 % b [31:0] $end
    $var wire 1 ' r_enable $end
    $var wire 64 ( r_index [63:0] $end
    $var wire 64 * r_data [63:0] $end
    $var wire 1 , w_enable $end
    $var wire 64 - w_index [63:0] $end
    $var wire 64 / w_data [63:0] $end
    $var wire 64 1 w_mask [63:0] $end
    $var wire 1 F enable $end
    $scope module mem $end
     $var wire 1 ' r_enable $end
     $var wire 64 ( r_index [63:0] $end
     $var wire 64 * r_data [63:0] $end
     $var wire 1 , w_enable $end
     $var wire 64 - w_index [63:0] $end
     $var wire 64 / w_data [63:0] $end
     $var wire 64 1 w_mask [63:0] $end
     $var wire 1 @ enable $end
     $var wire 1 4 clock $end
    $upscope $end
   $upscope $end
  $upscope $end
 $upscope $end
$enddefinitions $end


#0
b0000000000000000000000000000000000000000000000000000000000000000 #
b00000000000000000000000000000000 %
b0000 &
0'
b0000000000000000000000000000000000000000000000000000000000000000 (
b0000000000000000000000000000000000000000000000000000000000000000 *
0,
b0000000000000000000000000000000000000000000000000000000000000000 -
b0000000000000000000000000000000000000000000000000000000000000000 /
b0000000000000000000000000000000000000000000000000000000000000000 1
13
14
05
06
07
b00000000 8
09
b00000000 :
0;
0<
0=
1>
0?
1@
0A
b0000000000000000000000000000000000000000000000000000000000000000 B
b00000000000000000000000000000000 D
b00000000 E
0F
#1
04
#2
14
#3
04
#4
14
#5
04
#6
14
#7
04
#8
14
#9
04
#10
14
#11
04
#12
14
#13
04
#14
14
#15
04
#16
14
#17
04
#18
14
#19
04
#20
14
#21
04
#22
14
#23
04
#24
14
#25
04
#26
14
#27
04
#28
14
#29
04
#30
14
#31
04
#32
14
#33
04
#34
14
#35
04
#36
14
#37
04
#38
14
#39
04
#40
14
#41
04
#42
14
#43
04
#44
14
#45
04
#46
14
#47
04
#48
14
#49
04
#50
14
#51
04
#52
14
#53
04
#54
14
#55
04
#56
14
#57
04
#58
14
#59
04
#60
14
#61
04
#62
14
#63
04
#64
14
#65
04
#66
14
#67
04
#68
14
#69
04
#70
14
#71
04
#72
14
#73
04
#74
14
#75
04
#76
14
#77
04
#78
14
#79
04
#80
14
#81
04
#82
14
#83
04
#84
14
#85
04
#86
14
#87
04
#88
14
#89
04
#90
14
#91
04
#92
14
#93
04
#94
14
#95
04
#96
14
#97
04
#98
14
#99
04
#100
b0000000000000000000000000000000000000000000000000000000000000001 #
b0001 &
03
14
1?
#101
04
#102
b0000000000000000000000000000000000000000000000000000000000000010 #
b0010 &
14
#103
04
#104
b0000000000000000000000000000000000000000000000000000000000000011 #
b0011 &
14
#105
04
#106
b0000000000000000000000000000000000000000000000000000000000000100 #
b0100 &
14
#107
04
#108
b0000000000000000000000000000000000000000000000000000000000000101 #
b0101 &
14
#109
04
#110
b0000000000000000000000000000000000000000000000000000000000000110 #
b0110 &
14
#111
04
#112
b0000000000000000000000000000000000000000000000000000000000000111 #
b0111 &
14
#113
04
#114
b0000000000000000000000000000000000000000000000000000000000001000 #
b1000 &
14
#115
04
#116
b0000000000000000000000000000000000000000000000000000000000001001 #
b00000000000000000000000000000001 %
14
#117
04
#118
b0000000000000000000000000000000000000000000000000000000000001010 #
14
#119
04
#120
b0000000000000000000000000000000000000000000000000000000000001011 #
14
#121
04
#122
b0000000000000000000000000000000000000000000000000000000000001100 #
14
#123
04
#124
b0000000000000000000000000000000000000000000000000000000000001101 #
14
#125
04
#126
b0000000000000000000000000000000000000000000000000000000000001110 #
14
#127
04
#128
b0000000000000000000000000000000000000000000000000000000000001111 #
14
#129
04
#130
b0000000000000000000000000000000000000000000000000000000000010000 #
14
#131
04
#132
b0000000000000000000000000000000000000000000000000000000000010001 #
14
#133
04
#134
b0000000000000000000000000000000000000000000000000000000000010010 #
14
#135
04
#136
b0000000000000000000000000000000000000000000000000000000000010011 #
14
#137
04
#138
b0000000000000000000000000000000000000000000000000000000000010100 #
14
#139
04
#140
b0000000000000000000000000000000000000000000000000000000000010101 #
14
#141
04
#142
b0000000000000000000000000000000000000000000000000000000000010110 #
14
#143
04
#144
b0000000000000000000000000000000000000000000000000000000000010111 #
14
#145
04
#146
b0000000000000000000000000000000000000000000000000000000000011000 #
14
#147
04
#148
b0000000000000000000000000000000000000000000000000000000000011001 #
14
#149
04
#150
b0000000000000000000000000000000000000000000000000000000000011010 #
14
#151
04
#152
b0000000000000000000000000000000000000000000000000000000000011011 #
14
#153
04
#154
b0000000000000000000000000000000000000000000000000000000000011100 #
14
#155
04
#156
b0000000000000000000000000000000000000000000000000000000000011101 #
14
#157
04
#158
b0000000000000000000000000000000000000000000000000000000000011110 #
14
#159
04
#160
b0000000000000000000000000000000000000000000000000000000000011111 #
14
#161
04
#162
b0000000000000000000000000000000000000000000000000000000000100000 #
14
#163
04
#164
b0000000000000000000000000000000000000000000000000000000000100001 #
14
#165
04
#166
b0000000000000000000000000000000000000000000000000000000000100010 #
14
#167
04
#168
b0000000000000000000000000000000000000000000000000000000000100011 #
14
#169
04
#170
b0000000000000000000000000000000000000000000000000000000000100100 #
14
#171
04
#172
b0000000000000000000000000000000000000000000000000000000000100101 #
14
#173
04
#174
b0000000000000000000000000000000000000000000000000000000000100110 #
14
#175
04
#176
b0000000000000000000000000000000000000000000000000000000000100111 #
14
#177
04
#178
b0000000000000000000000000000000000000000000000000000000000101000 #
14
#179
04
#180
b0000000000000000000000000000000000000000000000000000000000101001 #
14
#181
04
#182
b0000000000000000000000000000000000000000000000000000000000101010 #
14
#183
04
#184
b0000000000000000000000000000000000000000000000000000000000101011 #
14
#185
04
#186
b0000000000000000000000000000000000000000000000000000000000101100 #
14
#187
04
#188
b0000000000000000000000000000000000000000000000000000000000101101 #
14
#189
04
#190
b0000000000000000000000000000000000000000000000000000000000101110 #
14
#191
04
#192
b0000000000000000000000000000000000000000000000000000000000101111 #
14
#193
04
#194
b0000000000000000000000000000000000000000000000000000000000110000 #
14
#195
04
#196
b0000000000000000000000000000000000000000000000000000000000110001 #
14
#197
04
#198
b0000000000000000000000000000000000000000000000000000000000110010 #
14
#199
04
#200
b0000000000000000000000000000000000000000000000000000000000110011 #
14
#201
04
#202
b0000000000000000000000000000000000000000000000000000000000110100 #
14
#203
04
#204
b0000000000000000000000000000000000000000000000000000000000110101 #
14
#205
04
#206
b0000000000000000000000000000000000000000000000000000000000110110 #
14
#207
04
#208
b0000000000000000000000000000000000000000000000000000000000110111 #
14
#209
04
#210
b0000000000000000000000000000000000000000000000000000000000111000 #
14
#211
04
#212
b0000000000000000000000000000000000000000000000000000000000111001 #
14
#213
04
#214
b0000000000000000000000000000000000000000000000000000000000111010 #
14
#215
04
#216
b0000000000000000000000000000000000000000000000000000000000111011 #
14
#217
04
#218
b0000000000000000000000000000000000000000000000000000000000111100 #
14
#219
04
#220
b0000000000000000000000000000000000000000000000000000000000111101 #
14
#221
04
#222
b0000000000000000000000000000000000000000000000000000000000111110 #
14
#223
04
#224
b0000000000000000000000000000000000000000000000000000000000111111 #
14
#225
04
#226
b0000000000000000000000000000000000000000000000000000000001000000 #
14
#227
04
#228
b0000000000000000000000000000000000000000000000000000000001000001 #
14
#229
04
#230
b0000000000000000000000000000000000000000000000000000000001000010 #
14
#231
04
#232
b0000000000000000000000000000000000000000000000000000000001000011 #
14
#233
04
#234
b0000000000000000000000000000000000000000000000000000000001000100 #
14
#235
04
#236
b0000000000000000000000000000000000000000000000000000000001000101 #
14
#237
04
#238
b0000000000000000000000000000000000000000000000000000000001000110 #
14
#239
04
#240
b0000000000000000000000000000000000000000000000000000000001000111 #
14
#241
04
#242
b0000000000000000000000000000000000000000000000000000000001001000 #
14
#243
04
#244
b0000000000000000000000000000000000000000000000000000000001001001 #
14
#245
04
#246
b0000000000000000000000000000000000000000000000000000000001001010 #
14
#247
04
#248
b0000000000000000000000000000000000000000000000000000000001001011 #
14
#249
04
#250
b0000000000000000000000000000000000000000000000000000000001001100 #
14
#251
04
#252
b0000000000000000000000000000000000000000000000000000000001001101 #
14
#253
04
#254
b0000000000000000000000000000000000000000000000000000000001001110 #
14
#255
04
#256
b0000000000000000000000000000000000000000000000000000000001001111 #
14
#257
04
#258
b0000000000000000000000000000000000000000000000000000000001010000 #
14
#259
04
#260
b0000000000000000000000000000000000000000000000000000000001010001 #
14
#261
04
#262
b0000000000000000000000000000000000000000000000000000000001010010 #
14
#263
04
#264
b0000000000000000000000000000000000000000000000000000000001010011 #
14
#265
04
#266
b0000000000000000000000000000000000000000000000000000000001010100 #
14
#267
04
#268
b0000000000000000000000000000000000000000000000000000000001010101 #
14
#269
04
#270
b0000000000000000000000000000000000000000000000000000000001010110 #
14
#271
04
#272
b0000000000000000000000000000000000000000000000000000000001010111 #
14
#273
04
#274
b0000000000000000000000000000000000000000000000000000000001011000 #
14
#275
04
#276
b0000000000000000000000000000000000000000000000000000000001011001 #
14
#277
04
#278
b0000000000000000000000000000000000000000000000000000000001011010 #
14
#279
04
#280
b0000000000000000000000000000000000000000000000000000000001011011 #
14
#281
04
#282
b0000000000000000000000000000000000000000000000000000000001011100 #
14
#283
04
#284
b0000000000000000000000000000000000000000000000000000000001011101 #
14
#285
04
#286
b0000000000000000000000000000000000000000000000000000000001011110 #
14
#287
04
#288
b0000000000000000000000000000000000000000000000000000000001011111 #
14
#289
04
#290
b0000000000000000000000000000000000000000000000000000000001100000 #
14
#291
04
#292
b0000000000000000000000000000000000000000000000000000000001100001 #
14
#293
04
#294
b0000000000000000000000000000000000000000000000000000000001100010 #
14
#295
04
#296
b0000000000000000000000000000000000000000000000000000000001100011 #
14
#297
04
#298
b0000000000000000000000000000000000000000000000000000000001100100 #
14
#299
04
#300
b0000000000000000000000000000000000000000000000000000000001100101 #
14
#301
04
#302
b0000000000000000000000000000000000000000000000000000000001100110 #
14
#303
04
#304
b0000000000000000000000000000000000000000000000000000000001100111 #
14
#305
04
#306
b0000000000000000000000000000000000000000000000000000000001101000 #
14
#307
04
#308
b0000000000000000000000000000000000000000000000000000000001101001 #
14
#309
04
#310
b0000000000000000000000000000000000000000000000000000000001101010 #
14
#311
04
#312
b0000000000000000000000000000000000000000000000000000000001101011 #
14
#313
04
#314
b0000000000000000000000000000000000000000000000000000000001101100 #
14
#315
04
#316
b0000000000000000000000000000000000000000000000000000000001101101 #
14
#317
04
#318
b0000000000000000000000000000000000000000000000000000000001101110 #
14
#319
04
#320
b0000000000000000000000000000000000000000000000000000000001101111 #
14
#321
04
#322
b0000000000000000000000000000000000000000000000000000000001110000 #
14
#323
04
#324
b0000000000000000000000000000000000000000000000000000000001110001 #
14
#325
04
#326
b0000000000000000000000000000000000000000000000000000000001110010 #
14
#327
04
#328
b0000000000000000000000000000000000000000000000000000000001110011 #
14
#329
04
#330
b0000000000000000000000000000000000000000000000000000000001110100 #
14
#331
04
#332
b0000000000000000000000000000000000000000000000000000000001110101 #
14
#333
04
#334
b0000000000000000000000000000000000000000000000000000000001110110 #
14
#335
04
#336
b0000000000000000000000000000000000000000000000000000000001110111 #
14
#337
04
#338
b0000000000000000000000000000000000000000000000000000000001111000 #
14
#339
04
#340
b0000000000000000000000000000000000000000000000000000000001111001 #
14
#341
04
#342
b0000000000000000000000000000000000000000000000000000000001111010 #
14
#343
04
#344
b0000000000000000000000000000000000000000000000000000000001111011 #
14
#345
04
#346
b0000000000000000000000000000000000000000000000000000000001111100 #
14
#347
04
#348
b0000000000000000000000000000000000000000000000000000000001111101 #
14
#349
04
#350
b0000000000000000000000000000000000000000000000000000000001111110 #
14
#351
04
#352
b0000000000000000000000000000000000000000000000000000000001111111 #
14
#353
04
#354
b0000000000000000000000000000000000000000000000000000000010000000 #
14
#355
04
#356
b0000000000000000000000000000000000000000000000000000000010000001 #
14
#357
04
#358
b0000000000000000000000000000000000000000000000000000000010000010 #
14
#359
04
#360
b0000000000000000000000000000000000000000000000000000000010000011 #
14
#361
04
#362
b0000000000000000000000000000000000000000000000000000000010000100 #
14
#363
04
#364
b0000000000000000000000000000000000000000000000000000000010000101 #
14
#365
04
#366
b0000000000000000000000000000000000000000000000000000000010000110 #
14
#367
04
#368
b0000000000000000000000000000000000000000000000000000000010000111 #
14
#369
04
#370
b0000000000000000000000000000000000000000000000000000000010001000 #
14
#371
04
#372
b0000000000000000000000000000000000000000000000000000000010001001 #
14
#373
04
#374
b0000000000000000000000000000000000000000000000000000000010001010 #
14
#375
04
#376
b0000000000000000000000000000000000000000000000000000000010001011 #
14
#377
04
#378
b0000000000000000000000000000000000000000000000000000000010001100 #
14
#379
04
#380
b0000000000000000000000000000000000000000000000000000000010001101 #
14
#381
04
#382
b0000000000000000000000000000000000000000000000000000000010001110 #
14
#383
04
#384
b0000000000000000000000000000000000000000000000000000000010001111 #
14
#385
04
#386
b0000000000000000000000000000000000000000000000000000000010010000 #
14
#387
04
#388
b0000000000000000000000000000000000000000000000000000000010010001 #
14
#389
04
#390
b0000000000000000000000000000000000000000000000000000000010010010 #
14
#391
04
#392
b0000000000000000000000000000000000000000000000000000000010010011 #
14
#393
04
#394
b0000000000000000000000000000000000000000000000000000000010010100 #
14
#395
04
#396
b0000000000000000000000000000000000000000000000000000000010010101 #
14
#397
04
#398
b0000000000000000000000000000000000000000000000000000000010010110 #
14
#399
04
#400
b0000000000000000000000000000000000000000000000000000000010010111 #
14
#401
04
#402
b0000000000000000000000000000000000000000000000000000000010011000 #
14
#403
04
#404
b0000000000000000000000000000000000000000000000000000000010011001 #
14
#405
04
#406
b0000000000000000000000000000000000000000000000000000000010011010 #
14
#407
04
#408
b0000000000000000000000000000000000000000000000000000000010011011 #
14
#409
04
#410
b0000000000000000000000000000000000000000000000000000000010011100 #
14
#411
04
#412
b0000000000000000000000000000000000000000000000000000000010011101 #
14
#413
04
#414
b0000000000000000000000000000000000000000000000000000000010011110 #
14
#415
04
#416
b0000000000000000000000000000000000000000000000000000000010011111 #
14
#417
04
#418
b0000000000000000000000000000000000000000000000000000000010100000 #
14
#419
04
#420
b0000000000000000000000000000000000000000000000000000000010100001 #
14
#421
04
#422
b0000000000000000000000000000000000000000000000000000000010100010 #
14
#423
04
#424
b0000000000000000000000000000000000000000000000000000000010100011 #
14
#425
04
#426
b0000000000000000000000000000000000000000000000000000000010100100 #
14
#427
04
#428
b0000000000000000000000000000000000000000000000000000000010100101 #
14
#429
04
#430
b0000000000000000000000000000000000000000000000000000000010100110 #
14
#431
04
#432
b0000000000000000000000000000000000000000000000000000000010100111 #
14
#433
04
#434
b0000000000000000000000000000000000000000000000000000000010101000 #
14
#435
04
#436
b0000000000000000000000000000000000000000000000000000000010101001 #
14
#437
04
#438
b0000000000000000000000000000000000000000000000000000000010101010 #
14
#439
04
#440
b0000000000000000000000000000000000000000000000000000000010101011 #
14
#441
04
#442
b0000000000000000000000000000000000000000000000000000000010101100 #
14
#443
04
#444
b0000000000000000000000000000000000000000000000000000000010101101 #
14
#445
04
#446
b0000000000000000000000000000000000000000000000000000000010101110 #
14
#447
04
#448
b0000000000000000000000000000000000000000000000000000000010101111 #
14
#449
04
#450
b0000000000000000000000000000000000000000000000000000000010110000 #
14
#451
04
#452
b0000000000000000000000000000000000000000000000000000000010110001 #
14
#453
04
#454
b0000000000000000000000000000000000000000000000000000000010110010 #
14
#455
04
#456
b0000000000000000000000000000000000000000000000000000000010110011 #
14
#457
04
#458
b0000000000000000000000000000000000000000000000000000000010110100 #
14
#459
04
#460
b0000000000000000000000000000000000000000000000000000000010110101 #
14
#461
04
#462
b0000000000000000000000000000000000000000000000000000000010110110 #
14
#463
04
#464
b0000000000000000000000000000000000000000000000000000000010110111 #
14
#465
04
#466
b0000000000000000000000000000000000000000000000000000000010111000 #
14
#467
04
#468
b0000000000000000000000000000000000000000000000000000000010111001 #
14
#469
04
#470
b0000000000000000000000000000000000000000000000000000000010111010 #
14
#471
04
#472
b0000000000000000000000000000000000000000000000000000000010111011 #
14
#473
04
#474
b0000000000000000000000000000000000000000000000000000000010111100 #
14
#475
04
#476
b0000000000000000000000000000000000000000000000000000000010111101 #
14
#477
04
#478
b0000000000000000000000000000000000000000000000000000000010111110 #
14
#479
04
#480
b0000000000000000000000000000000000000000000000000000000010111111 #
14
#481
04
#482
b0000000000000000000000000000000000000000000000000000000011000000 #
14
#483
04
#484
b0000000000000000000000000000000000000000000000000000000011000001 #
14
#485
04
#486
b0000000000000000000000000000000000000000000000000000000011000010 #
14
#487
04
#488
b0000000000000000000000000000000000000000000000000000000011000011 #
14
#489
04
#490
b0000000000000000000000000000000000000000000000000000000011000100 #
14
#491
04
#492
b0000000000000000000000000000000000000000000000000000000011000101 #
14
#493
04
#494
b0000000000000000000000000000000000000000000000000000000011000110 #
14
#495
04
#496
b0000000000000000000000000000000000000000000000000000000011000111 #
14
#497
04
#498
b0000000000000000000000000000000000000000000000000000000011001000 #
14
#499
04
#500
b0000000000000000000000000000000000000000000000000000000011001001 #
14
#501
04
#502
b0000000000000000000000000000000000000000000000000000000011001010 #
14
#503
04
#504
b0000000000000000000000000000000000000000000000000000000011001011 #
14
#505
04
#506
b0000000000000000000000000000000000000000000000000000000011001100 #
14
#507
04
#508
b0000000000000000000000000000000000000000000000000000000011001101 #
14
#509
04
#510
b0000000000000000000000000000000000000000000000000000000011001110 #
14
#511
04
#512
b0000000000000000000000000000000000000000000000000000000011001111 #
14
#513
04
#514
b0000000000000000000000000000000000000000000000000000000011010000 #
14
#515
04
#516
b0000000000000000000000000000000000000000000000000000000011010001 #
14
#517
04
#518
b0000000000000000000000000000000000000000000000000000000011010010 #
14
#519
04
#520
b0000000000000000000000000000000000000000000000000000000011010011 #
14
#521
04
#522
b0000000000000000000000000000000000000000000000000000000011010100 #
14
#523
04
#524
b0000000000000000000000000000000000000000000000000000000011010101 #
14
#525
04
#526
b0000000000000000000000000000000000000000000000000000000011010110 #
14
#527
04
#528
b0000000000000000000000000000000000000000000000000000000011010111 #
14
#529
04
#530
b0000000000000000000000000000000000000000000000000000000011011000 #
14
#531
04
#532
b0000000000000000000000000000000000000000000000000000000011011001 #
14
#533
04
#534
b0000000000000000000000000000000000000000000000000000000011011010 #
14
#535
04
#536
b0000000000000000000000000000000000000000000000000000000011011011 #
14
#537
04
#538
b0000000000000000000000000000000000000000000000000000000011011100 #
14
#539
04
#540
b0000000000000000000000000000000000000000000000000000000011011101 #
14
#541
04
#542
b0000000000000000000000000000000000000000000000000000000011011110 #
14
#543
04
#544
b0000000000000000000000000000000000000000000000000000000011011111 #
14
#545
04
#546
b0000000000000000000000000000000000000000000000000000000011100000 #
14
#547
04
#548
b0000000000000000000000000000000000000000000000000000000011100001 #
14
#549
04
#550
b0000000000000000000000000000000000000000000000000000000011100010 #
14
#551
04
#552
b0000000000000000000000000000000000000000000000000000000011100011 #
14
#553
04
#554
b0000000000000000000000000000000000000000000000000000000011100100 #
14
#555
04
#556
b0000000000000000000000000000000000000000000000000000000011100101 #
14
#557
04
#558
b0000000000000000000000000000000000000000000000000000000011100110 #
14
#559
04
#560
b0000000000000000000000000000000000000000000000000000000011100111 #
14
#561
04
#562
b0000000000000000000000000000000000000000000000000000000011101000 #
14
#563
04
#564
b0000000000000000000000000000000000000000000000000000000011101001 #
14
#565
04
#566
b0000000000000000000000000000000000000000000000000000000011101010 #
14
#567
04
#568
b0000000000000000000000000000000000000000000000000000000011101011 #
14
#569
04
#570
b0000000000000000000000000000000000000000000000000000000011101100 #
14
#571
04
#572
b0000000000000000000000000000000000000000000000000000000011101101 #
14
#573
04
#574
b0000000000000000000000000000000000000000000000000000000011101110 #
14
#575
04
#576
b0000000000000000000000000000000000000000000000000000000011101111 #
14
#577
04
#578
b0000000000000000000000000000000000000000000000000000000011110000 #
14
#579
04
#580
b0000000000000000000000000000000000000000000000000000000011110001 #
14
#581
04
#582
b0000000000000000000000000000000000000000000000000000000011110010 #
14
#583
04
#584
b0000000000000000000000000000000000000000000000000000000011110011 #
14
#585
04
#586
b0000000000000000000000000000000000000000000000000000000011110100 #
14
#587
04
#588
b0000000000000000000000000000000000000000000000000000000011110101 #
14
#589
04
#590
b0000000000000000000000000000000000000000000000000000000011110110 #
14
#591
04
#592
b0000000000000000000000000000000000000000000000000000000011110111 #
14
#593
04
#594
b0000000000000000000000000000000000000000000000000000000011111000 #
14
#595
04
#596
b0000000000000000000000000000000000000000000000000000000011111001 #
14
#597
04
#598
b0000000000000000000000000000000000000000000000000000000011111010 #
14
#599
04
#600
b0000000000000000000000000000000000000000000000000000000011111011 #
14
#601
04
#602
b0000000000000000000000000000000000000000000000000000000011111100 #
14
#603
04
#604
b0000000000000000000000000000000000000000000000000000000011111101 #
14
#605
04
#606
b0000000000000000000000000000000000000000000000000000000011111110 #
14
#607
04
#608
b0000000000000000000000000000000000000000000000000000000011111111 #
14
#609
04
#610
b0000000000000000000000000000000000000000000000000000000100000000 #
14
#611
04
#612
b0000000000000000000000000000000000000000000000000000000100000001 #
14
#613
04
#614
b0000000000000000000000000000000000000000000000000000000100000010 #
14
#615
04
#616
b0000000000000000000000000000000000000000000000000000000100000011 #
14
#617
04
#618
b0000000000000000000000000000000000000000000000000000000100000100 #
14
#619
04
#620
b0000000000000000000000000000000000000000000000000000000100000101 #
14
#621
04
#622
b0000000000000000000000000000000000000000000000000000000100000110 #
14
#623
04
#624
b0000000000000000000000000000000000000000000000000000000100000111 #
14
#625
04
#626
b0000000000000000000000000000000000000000000000000000000100001000 #
14
#627
04
#628
b0000000000000000000000000000000000000000000000000000000100001001 #
14
#629
04
#630
b0000000000000000000000000000000000000000000000000000000100001010 #
14
#631
04
#632
b0000000000000000000000000000000000000000000000000000000100001011 #
14
#633
04
#634
b0000000000000000000000000000000000000000000000000000000100001100 #
14
#635
04
#636
b0000000000000000000000000000000000000000000000000000000100001101 #
14
#637
04
#638
b0000000000000000000000000000000000000000000000000000000100001110 #
14
#639
04
#640
b0000000000000000000000000000000000000000000000000000000100001111 #
14
#641
04
#642
b0000000000000000000000000000000000000000000000000000000100010000 #
14
#643
04
#644
b0000000000000000000000000000000000000000000000000000000100010001 #
14
#645
04
#646
b0000000000000000000000000000000000000000000000000000000100010010 #
14
#647
04
#648
b0000000000000000000000000000000000000000000000000000000100010011 #
14
#649
04
#650
b0000000000000000000000000000000000000000000000000000000100010100 #
14
#651
04
#652
b0000000000000000000000000000000000000000000000000000000100010101 #
14
#653
04
#654
b0000000000000000000000000000000000000000000000000000000100010110 #
14
#655
04
#656
b0000000000000000000000000000000000000000000000000000000100010111 #
14
#657
04
#658
b0000000000000000000000000000000000000000000000000000000100011000 #
14
#659
04
#660
b0000000000000000000000000000000000000000000000000000000100011001 #
14
#661
04
#662
b0000000000000000000000000000000000000000000000000000000100011010 #
14
#663
04
#664
b0000000000000000000000000000000000000000000000000000000100011011 #
14
#665
04
#666
b0000000000000000000000000000000000000000000000000000000100011100 #
14
#667
04
#668
b0000000000000000000000000000000000000000000000000000000100011101 #
14
#669
04
#670
b0000000000000000000000000000000000000000000000000000000100011110 #
14
#671
04
#672
b0000000000000000000000000000000000000000000000000000000100011111 #
14
#673
04
#674
b0000000000000000000000000000000000000000000000000000000100100000 #
14
#675
04
#676
b0000000000000000000000000000000000000000000000000000000100100001 #
14
#677
04
#678
b0000000000000000000000000000000000000000000000000000000100100010 #
14
#679
04
#680
b0000000000000000000000000000000000000000000000000000000100100011 #
14
#681
04
#682
b0000000000000000000000000000000000000000000000000000000100100100 #
14
#683
04
#684
b0000000000000000000000000000000000000000000000000000000100100101 #
14
#685
04
#686
b0000000000000000000000000000000000000000000000000000000100100110 #
14
#687
04
#688
b0000000000000000000000000000000000000000000000000000000100100111 #
14
#689
04
#690
b0000000000000000000000000000000000000000000000000000000100101000 #
14
#691
04
#692
b0000000000000000000000000000000000000000000000000000000100101001 #
14
#693
04
#694
b0000000000000000000000000000000000000000000000000000000100101010 #
14
#695
04
#696
b0000000000000000000000000000000000000000000000000000000100101011 #
14
#697
04
#698
b0000000000000000000000000000000000000000000000000000000100101100 #
14
#699
04
#700
b0000000000000000000000000000000000000000000000000000000100101101 #
14
#701
04
#702
b0000000000000000000000000000000000000000000000000000000100101110 #
14
#703
04
#704
b0000000000000000000000000000000000000000000000000000000100101111 #
14
#705
04
#706
b0000000000000000000000000000000000000000000000000000000100110000 #
14
#707
04
#708
b0000000000000000000000000000000000000000000000000000000100110001 #
14
#709
04
#710
b0000000000000000000000000000000000000000000000000000000100110010 #
14
#711
04
#712
b0000000000000000000000000000000000000000000000000000000100110011 #
14
#713
04
#714
b0000000000000000000000000000000000000000000000000000000100110100 #
14
#715
04
#716
b0000000000000000000000000000000000000000000000000000000100110101 #
14
#717
04
#718
b0000000000000000000000000000000000000000000000000000000100110110 #
14
#719
04
#720
b0000000000000000000000000000000000000000000000000000000100110111 #
14
#721
04
#722
b0000000000000000000000000000000000000000000000000000000100111000 #
14
#723
04
#724
b0000000000000000000000000000000000000000000000000000000100111001 #
14
#725
04
#726
b0000000000000000000000000000000000000000000000000000000100111010 #
14
#727
04
#728
b0000000000000000000000000000000000000000000000000000000100111011 #
14
#729
04
#730
b0000000000000000000000000000000000000000000000000000000100111100 #
14
#731
04
#732
b0000000000000000000000000000000000000000000000000000000100111101 #
14
#733
04
#734
b0000000000000000000000000000000000000000000000000000000100111110 #
14
#735
04
#736
b0000000000000000000000000000000000000000000000000000000100111111 #
14
#737
04
#738
b0000000000000000000000000000000000000000000000000000000101000000 #
14
#739
04
#740
b0000000000000000000000000000000000000000000000000000000101000001 #
14
#741
04
#742
b0000000000000000000000000000000000000000000000000000000101000010 #
14
#743
04
#744
b0000000000000000000000000000000000000000000000000000000101000011 #
14
#745
04
#746
b0000000000000000000000000000000000000000000000000000000101000100 #
14
#747
04
#748
b0000000000000000000000000000000000000000000000000000000101000101 #
14
#749
04
#750
b0000000000000000000000000000000000000000000000000000000101000110 #
14
#751
04
#752
b0000000000000000000000000000000000000000000000000000000101000111 #
14
#753
04
#754
b0000000000000000000000000000000000000000000000000000000101001000 #
14
#755
04
#756
b0000000000000000000000000000000000000000000000000000000101001001 #
14
#757
04
#758
b0000000000000000000000000000000000000000000000000000000101001010 #
14
#759
04
#760
b0000000000000000000000000000000000000000000000000000000101001011 #
14
#761
04
#762
b0000000000000000000000000000000000000000000000000000000101001100 #
14
#763
04
#764
b0000000000000000000000000000000000000000000000000000000101001101 #
14
#765
04
#766
b0000000000000000000000000000000000000000000000000000000101001110 #
14
#767
04
#768
b0000000000000000000000000000000000000000000000000000000101001111 #
14
#769
04
#770
b0000000000000000000000000000000000000000000000000000000101010000 #
14
#771
04
#772
b0000000000000000000000000000000000000000000000000000000101010001 #
14
#773
04
#774
b0000000000000000000000000000000000000000000000000000000101010010 #
14
#775
04
#776
b0000000000000000000000000000000000000000000000000000000101010011 #
14
#777
04
#778
b0000000000000000000000000000000000000000000000000000000101010100 #
14
#779
04
#780
b0000000000000000000000000000000000000000000000000000000101010101 #
14
#781
04
#782
b0000000000000000000000000000000000000000000000000000000101010110 #
14
#783
04
#784
b0000000000000000000000000000000000000000000000000000000101010111 #
14
#785
04
#786
b0000000000000000000000000000000000000000000000000000000101011000 #
14
#787
04
#788
b0000000000000000000000000000000000000000000000000000000101011001 #
14
#789
04
#790
b0000000000000000000000000000000000000000000000000000000101011010 #
14
#791
04
#792
b0000000000000000000000000000000000000000000000000000000101011011 #
14
#793
04
#794
b0000000000000000000000000000000000000000000000000000000101011100 #
14
#795
04
#796
b0000000000000000000000000000000000000000000000000000000101011101 #
14
#797
04
#798
b0000000000000000000000000000000000000000000000000000000101011110 #
14
#799
04
#800
b0000000000000000000000000000000000000000000000000000000101011111 #
14
#801
04
#802
b0000000000000000000000000000000000000000000000000000000101100000 #
14
#803
04
#804
b0000000000000000000000000000000000000000000000000000000101100001 #
14
#805
04
#806
b0000000000000000000000000000000000000000000000000000000101100010 #
14
#807
04
#808
b0000000000000000000000000000000000000000000000000000000101100011 #
14
#809
04
#810
b0000000000000000000000000000000000000000000000000000000101100100 #
14
#811
04
#812
b0000000000000000000000000000000000000000000000000000000101100101 #
14
#813
04
