dump/test.vcd
$version Generated by VerilatedVcd $end
$timescale 1ps $end
 $scope module TOP $end
  $scope module SimTop $end
   $var wire 1 1 reset $end
   $var wire 1 2 clock $end
   $var wire 1 3 difftest_logCtrl_begin $end
   $var wire 1 4 difftest_logCtrl_end $end
   $var wire 1 # difftest_uart_out_valid $end
   $var wire 8 $ difftest_uart_out_ch [7:0] $end
   $var wire 1 5 difftest_uart_in_valid $end
   $var wire 8 6 difftest_uart_in_ch [7:0] $end
   $var wire 1 7 difftest_perfCtrl_clean $end
   $var wire 1 8 difftest_perfCtrl_dump $end
   $var wire 1 % difftest_exit $end
   $var wire 1 & difftest_step $end
   $scope module u_top $end
    $var wire 1 9 clk $end
    $var wire 1 : rst_n $end
    $var wire 32 = opt [31:0] $end
    $var wire 4 > a [3:0] $end
    $var wire 32 ? b [31:0] $end
    $var wire 1 @ r_enable $end
    $var wire 64 A r_index [63:0] $end
    $var wire 64 b r_data [63:0] $end
    $var wire 1 C w_enable $end
    $var wire 64 D w_index [63:0] $end
    $var wire 64 F w_data [63:0] $end
    $var wire 64 H w_mask [63:0] $end
    $var wire 1 h enable $end
    $scope module mem $end
     $var wire 1 J r_enable $end
     $var wire 64 K r_index [63:0] $end
     $var wire 64 f r_data [63:0] $end
     $var wire 1 M w_enable $end
     $var wire 64 N w_index [63:0] $end
     $var wire 64 P w_data [63:0] $end
     $var wire 64 R w_mask [63:0] $end
     $var wire 1 0 enable $end
     $var wire 1 < clock $end
    $upscope $end
   $upscope $end
   $var wire 64 ` cnt [63:0] $end
   $scope module u_DifftestTrapEvent $end
    $var wire 1 ; clock $end
    $var wire 1 ' enable $end
    $var wire 1 ( io_hasTrap $end
    $var wire 64 d io_cycleCnt [63:0] $end
    $var wire 64 ) io_instrCnt [63:0] $end
    $var wire 1 + io_hasWFI $end
    $var wire 32 , io_code [31:0] $end
    $var wire 64 - io_pc [63:0] $end
    $var wire 8 / io_coreid [7:0] $end
   $upscope $end
  $upscope $end
  $var wire 1 T reset $end
  $var wire 1 U clock $end
  $var wire 1 V difftest_logCtrl_begin $end
  $var wire 1 W difftest_logCtrl_end $end
  $var wire 1 X difftest_uart_out_valid $end
  $var wire 8 Y difftest_uart_out_ch [7:0] $end
  $var wire 1 Z difftest_uart_in_valid $end
  $var wire 8 [ difftest_uart_in_ch [7:0] $end
  $var wire 1 \ difftest_perfCtrl_clean $end
  $var wire 1 ] difftest_perfCtrl_dump $end
  $var wire 1 ^ difftest_exit $end
  $var wire 1 _ difftest_step $end
 $upscope $end
$enddefinitions $end


#0
0#
b00000000 $
0%
1&
1'
0(
b0000000000000000000000000000000000000000000000000000000000000000 )
0+
b00000000000000000000000000000000 ,
b0000000000000000000000000000000000000000000000000000000000000000 -
b00000000 /
10
11
12
03
04
05
b00000000 6
07
08
19
0:
1;
1<
b00000000000000000000000000000000 =
b0000 >
b00000000000000000000000000000000 ?
0@
b0000000000000000000000000000000000000000000000000000000000000000 A
0C
b0000000000000000000000000000000000000000000000000000000000000000 D
b0000000000000000000000000000000000000000000000000000000000000000 F
b0000000000000000000000000000000000000000000000000000000000000000 H
0J
b0000000000000000000000000000000000000000000000000000000000000000 K
0M
b0000000000000000000000000000000000000000000000000000000000000000 N
b0000000000000000000000000000000000000000000000000000000000000000 P
b0000000000000000000000000000000000000000000000000000000000000000 R
1T
1U
0V
0W
0X
b00000000 Y
0Z
b00000000 [
0\
0]
0^
1_
b0000000000000000000000000000000000000000000000000000000000000000 `
b0000000000000000000000000000000000000000000000000000000000000000 b
b0000000000000000000000000000000000000000000000000000000000000000 d
b0000000000000000000000000000000000000000000000000000000000000000 f
0h
#1
02
09
0;
0<
0U
#2
12
19
1;
1<
1U
#3
02
09
0;
0<
0U
#4
12
19
1;
1<
1U
#5
02
09
0;
0<
0U
#6
12
19
1;
1<
1U
#7
02
09
0;
0<
0U
#8
12
19
1;
1<
1U
#9
02
09
0;
0<
0U
#10
12
19
1;
1<
1U
#11
02
09
0;
0<
0U
#12
12
19
1;
1<
1U
#13
02
09
0;
0<
0U
#14
12
19
1;
1<
1U
#15
02
09
0;
0<
0U
#16
12
19
1;
1<
1U
#17
02
09
0;
0<
0U
#18
12
19
1;
1<
1U
#19
02
09
0;
0<
0U
#20
12
19
1;
1<
1U
#21
02
09
0;
0<
0U
#22
12
19
1;
1<
1U
#23
02
09
0;
0<
0U
#24
12
19
1;
1<
1U
#25
02
09
0;
0<
0U
#26
12
19
1;
1<
1U
#27
02
09
0;
0<
0U
#28
12
19
1;
1<
1U
#29
02
09
0;
0<
0U
#30
12
19
1;
1<
1U
#31
02
09
0;
0<
0U
#32
12
19
1;
1<
1U
#33
02
09
0;
0<
0U
#34
12
19
1;
1<
1U
#35
02
09
0;
0<
0U
#36
12
19
1;
1<
1U
#37
02
09
0;
0<
0U
#38
12
19
1;
1<
1U
#39
02
09
0;
0<
0U
#40
12
19
1;
1<
1U
#41
02
09
0;
0<
0U
#42
12
19
1;
1<
1U
#43
02
09
0;
0<
0U
#44
12
19
1;
1<
1U
#45
02
09
0;
0<
0U
#46
12
19
1;
1<
1U
#47
02
09
0;
0<
0U
#48
12
19
1;
1<
1U
#49
02
09
0;
0<
0U
#50
12
19
1;
1<
1U
#51
02
09
0;
0<
0U
#52
12
19
1;
1<
1U
#53
02
09
0;
0<
0U
#54
12
19
1;
1<
1U
#55
02
09
0;
0<
0U
#56
12
19
1;
1<
1U
#57
02
09
0;
0<
0U
#58
12
19
1;
1<
1U
#59
02
09
0;
0<
0U
#60
12
19
1;
1<
1U
#61
02
09
0;
0<
0U
#62
12
19
1;
1<
1U
#63
02
09
0;
0<
0U
#64
12
19
1;
1<
1U
#65
02
09
0;
0<
0U
#66
12
19
1;
1<
1U
#67
02
09
0;
0<
0U
#68
12
19
1;
1<
1U
#69
02
09
0;
0<
0U
#70
12
19
1;
1<
1U
#71
02
09
0;
0<
0U
#72
12
19
1;
1<
1U
#73
02
09
0;
0<
0U
#74
12
19
1;
1<
1U
#75
02
09
0;
0<
0U
#76
12
19
1;
1<
1U
#77
02
09
0;
0<
0U
#78
12
19
1;
1<
1U
#79
02
09
0;
0<
0U
#80
12
19
1;
1<
1U
#81
02
09
0;
0<
0U
#82
12
19
1;
1<
1U
#83
02
09
0;
0<
0U
#84
12
19
1;
1<
1U
#85
02
09
0;
0<
0U
#86
12
19
1;
1<
1U
#87
02
09
0;
0<
0U
#88
12
19
1;
1<
1U
#89
02
09
0;
0<
0U
#90
12
19
1;
1<
1U
#91
02
09
0;
0<
0U
#92
12
19
1;
1<
1U
#93
02
09
0;
0<
0U
#94
12
19
1;
1<
1U
#95
02
09
0;
0<
0U
#96
12
19
1;
1<
1U
#97
02
09
0;
0<
0U
#98
12
19
1;
1<
1U
#99
02
09
0;
0<
0U
#100
01
12
ÿ4
19
1:
1;
1<
b0001 >
0T
1U
ÿW
b0000000000000000000000000000000000000000000000000000000000000001 `
b0000000000000000000000000000000000000000000000000000000000000001 d
#101
02
09
0;
0<
0U
#102
12
19
1;
1<
b0010 >
1U
b0000000000000000000000000000000000000000000000000000000000000010 `
b0000000000000000000000000000000000000000000000000000000000000010 d
#103
02
09
0;
0<
0U
#104
12
19
1;
1<
b0011 >
1U
b0000000000000000000000000000000000000000000000000000000000000011 `
b0000000000000000000000000000000000000000000000000000000000000011 d
#105
02
09
0;
0<
0U
#106
12
19
1;
1<
b0100 >
1U
b0000000000000000000000000000000000000000000000000000000000000100 `
b0000000000000000000000000000000000000000000000000000000000000100 d
#107
02
09
0;
0<
0U
#108
12
19
1;
1<
b0101 >
1U
b0000000000000000000000000000000000000000000000000000000000000101 `
b0000000000000000000000000000000000000000000000000000000000000101 d
#109
02
09
0;
0<
0U
#110
12
19
1;
1<
b0110 >
1U
b0000000000000000000000000000000000000000000000000000000000000110 `
b0000000000000000000000000000000000000000000000000000000000000110 d
#111
02
09
0;
0<
0U
#112
12
19
1;
1<
b0111 >
1U
b0000000000000000000000000000000000000000000000000000000000000111 `
b0000000000000000000000000000000000000000000000000000000000000111 d
#113
02
09
0;
0<
0U
#114
12
19
1;
1<
b1000 >
1U
b0000000000000000000000000000000000000000000000000000000000001000 `
b0000000000000000000000000000000000000000000000000000000000001000 d
#115
02
09
0;
0<
0U
#116
12
19
1;
1<
b00000000000000000000000000000001 =
b00000000000000000000000000000001 ?
1U
b0000000000000000000000000000000000000000000000000000000000001001 `
b0000000000000000000000000000000000000000000000000000000000001001 d
#117
02
09
0;
0<
0U
#118
12
19
1;
1<
1U
b0000000000000000000000000000000000000000000000000000000000001010 `
b0000000000000000000000000000000000000000000000000000000000001010 d
#119
02
09
0;
0<
0U
#120
12
19
1;
1<
1U
b0000000000000000000000000000000000000000000000000000000000001011 `
b0000000000000000000000000000000000000000000000000000000000001011 d
#121
02
09
0;
0<
0U
#122
12
19
1;
1<
1U
b0000000000000000000000000000000000000000000000000000000000001100 `
b0000000000000000000000000000000000000000000000000000000000001100 d
#123
02
09
0;
0<
0U
#124
12
19
1;
1<
1U
b0000000000000000000000000000000000000000000000000000000000001101 `
b0000000000000000000000000000000000000000000000000000000000001101 d
#125
02
09
0;
0<
0U
#126
12
19
1;
1<
1U
b0000000000000000000000000000000000000000000000000000000000001110 `
b0000000000000000000000000000000000000000000000000000000000001110 d
#127
02
09
0;
0<
0U
#128
12
19
1;
1<
1U
b0000000000000000000000000000000000000000000000000000000000001111 `
b0000000000000000000000000000000000000000000000000000000000001111 d
#129
02
09
0;
0<
0U
#130
12
19
1;
1<
1U
b0000000000000000000000000000000000000000000000000000000000010000 `
b0000000000000000000000000000000000000000000000000000000000010000 d
#131
02
09
0;
0<
0U
#132
12
19
1;
1<
1U
b0000000000000000000000000000000000000000000000000000000000010001 `
b0000000000000000000000000000000000000000000000000000000000010001 d
#133
02
09
0;
0<
0U
#134
12
19
1;
1<
1U
b0000000000000000000000000000000000000000000000000000000000010010 `
b0000000000000000000000000000000000000000000000000000000000010010 d
#135
02
09
0;
0<
0U
#136
12
19
1;
1<
1U
b0000000000000000000000000000000000000000000000000000000000010011 `
b0000000000000000000000000000000000000000000000000000000000010011 d
#137
02
09
0;
0<
0U
#138
12
19
1;
1<
1U
b0000000000000000000000000000000000000000000000000000000000010100 `
b0000000000000000000000000000000000000000000000000000000000010100 d
#139
02
09
0;
0<
0U
#140
12
19
1;
1<
1U
b0000000000000000000000000000000000000000000000000000000000010101 `
b0000000000000000000000000000000000000000000000000000000000010101 d
#141
02
09
0;
0<
0U
#142
12
19
1;
1<
1U
b0000000000000000000000000000000000000000000000000000000000010110 `
b0000000000000000000000000000000000000000000000000000000000010110 d
#143
02
09
0;
0<
0U
#144
12
19
1;
1<
1U
b0000000000000000000000000000000000000000000000000000000000010111 `
b0000000000000000000000000000000000000000000000000000000000010111 d
#145
02
09
0;
0<
0U
#146
12
19
1;
1<
1U
b0000000000000000000000000000000000000000000000000000000000011000 `
b0000000000000000000000000000000000000000000000000000000000011000 d
#147
02
09
0;
0<
0U
#148
12
19
1;
1<
1U
b0000000000000000000000000000000000000000000000000000000000011001 `
b0000000000000000000000000000000000000000000000000000000000011001 d
#149
02
09
0;
0<
0U
#150
12
19
1;
1<
1U
b0000000000000000000000000000000000000000000000000000000000011010 `
b0000000000000000000000000000000000000000000000000000000000011010 d
#151
02
09
0;
0<
0U
#152
12
19
1;
1<
1U
b0000000000000000000000000000000000000000000000000000000000011011 `
b0000000000000000000000000000000000000000000000000000000000011011 d
#153
02
09
0;
0<
0U
#154
12
19
1;
1<
1U
b0000000000000000000000000000000000000000000000000000000000011100 `
b0000000000000000000000000000000000000000000000000000000000011100 d
#155
02
09
0;
0<
0U
#156
12
19
1;
1<
1U
b0000000000000000000000000000000000000000000000000000000000011101 `
b0000000000000000000000000000000000000000000000000000000000011101 d
#157
02
09
0;
0<
0U
#158
12
19
1;
1<
1U
b0000000000000000000000000000000000000000000000000000000000011110 `
b0000000000000000000000000000000000000000000000000000000000011110 d
#159
02
09
0;
0<
0U
#160
12
19
1;
1<
1U
b0000000000000000000000000000000000000000000000000000000000011111 `
b0000000000000000000000000000000000000000000000000000000000011111 d
#161
02
09
0;
0<
0U
#162
12
19
1;
1<
1U
b0000000000000000000000000000000000000000000000000000000000100000 `
b0000000000000000000000000000000000000000000000000000000000100000 d
#163
02
09
0;
0<
0U
#164
12
19
1;
1<
1U
b0000000000000000000000000000000000000000000000000000000000100001 `
b0000000000000000000000000000000000000000000000000000000000100001 d
#165
02
09
0;
0<
0U
#166
12
19
1;
1<
1U
b0000000000000000000000000000000000000000000000000000000000100010 `
b0000000000000000000000000000000000000000000000000000000000100010 d
#167
02
09
0;
0<
0U
#168
12
19
1;
1<
1U
b0000000000000000000000000000000000000000000000000000000000100011 `
b0000000000000000000000000000000000000000000000000000000000100011 d
#169
02
09
0;
0<
0U
#170
12
19
1;
1<
1U
b0000000000000000000000000000000000000000000000000000000000100100 `
b0000000000000000000000000000000000000000000000000000000000100100 d
#171
02
09
0;
0<
0U
#172
12
19
1;
1<
1U
b0000000000000000000000000000000000000000000000000000000000100101 `
b0000000000000000000000000000000000000000000000000000000000100101 d
#173
02
09
0;
0<
0U
#174
12
19
1;
1<
1U
b0000000000000000000000000000000000000000000000000000000000100110 `
b0000000000000000000000000000000000000000000000000000000000100110 d
#175
02
09
0;
0<
0U
#176
12
19
1;
1<
1U
b0000000000000000000000000000000000000000000000000000000000100111 `
b0000000000000000000000000000000000000000000000000000000000100111 d
#177
02
09
0;
0<
0U
#178
12
19
1;
1<
1U
b0000000000000000000000000000000000000000000000000000000000101000 `
b0000000000000000000000000000000000000000000000000000000000101000 d
#179
02
09
0;
0<
0U
#180
12
19
1;
1<
1U
b0000000000000000000000000000000000000000000000000000000000101001 `
b0000000000000000000000000000000000000000000000000000000000101001 d
#181
02
09
0;
0<
0U
#182
12
19
1;
1<
1U
b0000000000000000000000000000000000000000000000000000000000101010 `
b0000000000000000000000000000000000000000000000000000000000101010 d
#183
02
09
0;
0<
0U
#184
12
19
1;
1<
1U
b0000000000000000000000000000000000000000000000000000000000101011 `
b0000000000000000000000000000000000000000000000000000000000101011 d
#185
02
09
0;
0<
0U
#186
12
19
1;
1<
1U
b0000000000000000000000000000000000000000000000000000000000101100 `
b0000000000000000000000000000000000000000000000000000000000101100 d
#187
02
09
0;
0<
0U
#188
12
19
1;
1<
1U
b0000000000000000000000000000000000000000000000000000000000101101 `
b0000000000000000000000000000000000000000000000000000000000101101 d
#189
02
09
0;
0<
0U
#190
12
19
1;
1<
1U
b0000000000000000000000000000000000000000000000000000000000101110 `
b0000000000000000000000000000000000000000000000000000000000101110 d
#191
02
09
0;
0<
0U
#192
12
19
1;
1<
1U
b0000000000000000000000000000000000000000000000000000000000101111 `
b0000000000000000000000000000000000000000000000000000000000101111 d
#193
02
09
0;
0<
0U
#194
12
19
1;
1<
1U
b0000000000000000000000000000000000000000000000000000000000110000 `
b0000000000000000000000000000000000000000000000000000000000110000 d
#195
02
09
0;
0<
0U
#196
12
19
1;
1<
1U
b0000000000000000000000000000000000000000000000000000000000110001 `
b0000000000000000000000000000000000000000000000000000000000110001 d
#197
02
09
0;
0<
0U
#198
12
19
1;
1<
1U
b0000000000000000000000000000000000000000000000000000000000110010 `
b0000000000000000000000000000000000000000000000000000000000110010 d
#199
02
09
0;
0<
0U
#200
12
19
1;
1<
1U
b0000000000000000000000000000000000000000000000000000000000110011 `
b0000000000000000000000000000000000000000000000000000000000110011 d
#201
02
09
0;
0<
0U
#202
12
19
1;
1<
1U
b0000000000000000000000000000000000000000000000000000000000110100 `
b0000000000000000000000000000000000000000000000000000000000110100 d
#203
02
09
0;
0<
0U
#204
12
19
1;
1<
1U
b0000000000000000000000000000000000000000000000000000000000110101 `
b0000000000000000000000000000000000000000000000000000000000110101 d
#205
02
09
0;
0<
0U
#206
12
19
1;
1<
1U
b0000000000000000000000000000000000000000000000000000000000110110 `
b0000000000000000000000000000000000000000000000000000000000110110 d
#207
02
09
0;
0<
0U
#208
12
19
1;
1<
1U
b0000000000000000000000000000000000000000000000000000000000110111 `
b0000000000000000000000000000000000000000000000000000000000110111 d
#209
02
09
0;
0<
0U
#210
12
19
1;
1<
1U
b0000000000000000000000000000000000000000000000000000000000111000 `
b0000000000000000000000000000000000000000000000000000000000111000 d
#211
02
09
0;
0<
0U
#212
12
19
1;
1<
1U
b0000000000000000000000000000000000000000000000000000000000111001 `
b0000000000000000000000000000000000000000000000000000000000111001 d
#213
02
09
0;
0<
0U
#214
12
19
1;
1<
1U
b0000000000000000000000000000000000000000000000000000000000111010 `
b0000000000000000000000000000000000000000000000000000000000111010 d
#215
02
09
0;
0<
0U
#216
12
19
1;
1<
1U
b0000000000000000000000000000000000000000000000000000000000111011 `
b0000000000000000000000000000000000000000000000000000000000111011 d
#217
02
09
0;
0<
0U
#218
12
19
1;
1<
1U
b0000000000000000000000000000000000000000000000000000000000111100 `
b0000000000000000000000000000000000000000000000000000000000111100 d
#219
02
09
0;
0<
0U
#220
12
19
1;
1<
1U
b0000000000000000000000000000000000000000000000000000000000111101 `
b0000000000000000000000000000000000000000000000000000000000111101 d
#221
02
09
0;
0<
0U
#222
12
19
1;
1<
1U
b0000000000000000000000000000000000000000000000000000000000111110 `
b0000000000000000000000000000000000000000000000000000000000111110 d
#223
02
09
0;
0<
0U
#224
12
19
1;
1<
1U
b0000000000000000000000000000000000000000000000000000000000111111 `
b0000000000000000000000000000000000000000000000000000000000111111 d
#225
02
09
0;
0<
0U
#226
12
19
1;
1<
1U
b0000000000000000000000000000000000000000000000000000000001000000 `
b0000000000000000000000000000000000000000000000000000000001000000 d
#227
02
09
0;
0<
0U
#228
12
19
1;
1<
1U
b0000000000000000000000000000000000000000000000000000000001000001 `
b0000000000000000000000000000000000000000000000000000000001000001 d
#229
02
09
0;
0<
0U
#230
12
19
1;
1<
1U
b0000000000000000000000000000000000000000000000000000000001000010 `
b0000000000000000000000000000000000000000000000000000000001000010 d
#231
02
09
0;
0<
0U
#232
12
19
1;
1<
1U
b0000000000000000000000000000000000000000000000000000000001000011 `
b0000000000000000000000000000000000000000000000000000000001000011 d
#233
02
09
0;
0<
0U
#234
12
19
1;
1<
1U
b0000000000000000000000000000000000000000000000000000000001000100 `
b0000000000000000000000000000000000000000000000000000000001000100 d
#235
02
09
0;
0<
0U
#236
12
19
1;
1<
1U
b0000000000000000000000000000000000000000000000000000000001000101 `
b0000000000000000000000000000000000000000000000000000000001000101 d
#237
02
09
0;
0<
0U
#238
12
19
1;
1<
1U
b0000000000000000000000000000000000000000000000000000000001000110 `
b0000000000000000000000000000000000000000000000000000000001000110 d
#239
02
09
0;
0<
0U
#240
12
19
1;
1<
1U
b0000000000000000000000000000000000000000000000000000000001000111 `
b0000000000000000000000000000000000000000000000000000000001000111 d
#241
02
09
0;
0<
0U
#242
12
19
1;
1<
1U
b0000000000000000000000000000000000000000000000000000000001001000 `
b0000000000000000000000000000000000000000000000000000000001001000 d
#243
02
09
0;
0<
0U
#244
12
19
1;
1<
1U
b0000000000000000000000000000000000000000000000000000000001001001 `
b0000000000000000000000000000000000000000000000000000000001001001 d
#245
02
09
0;
0<
0U
#246
12
19
1;
1<
1U
b0000000000000000000000000000000000000000000000000000000001001010 `
b0000000000000000000000000000000000000000000000000000000001001010 d
#247
02
09
0;
0<
0U
#248
12
19
1;
1<
1U
b0000000000000000000000000000000000000000000000000000000001001011 `
b0000000000000000000000000000000000000000000000000000000001001011 d
#249
02
09
0;
0<
0U
#250
12
19
1;
1<
1U
b0000000000000000000000000000000000000000000000000000000001001100 `
b0000000000000000000000000000000000000000000000000000000001001100 d
#251
02
09
0;
0<
0U
#252
12
19
1;
1<
1U
b0000000000000000000000000000000000000000000000000000000001001101 `
b0000000000000000000000000000000000000000000000000000000001001101 d
#253
02
09
0;
0<
0U
#254
12
19
1;
1<
1U
b0000000000000000000000000000000000000000000000000000000001001110 `
b0000000000000000000000000000000000000000000000000000000001001110 d
#255
02
09
0;
0<
0U
#256
12
19
1;
1<
1U
b0000000000000000000000000000000000000000000000000000000001001111 `
b0000000000000000000000000000000000000000000000000000000001001111 d
#257
02
09
0;
0<
0U
#258
12
19
1;
1<
1U
b0000000000000000000000000000000000000000000000000000000001010000 `
b0000000000000000000000000000000000000000000000000000000001010000 d
#259
02
09
0;
0<
0U
#260
12
19
1;
1<
1U
b0000000000000000000000000000000000000000000000000000000001010001 `
b0000000000000000000000000000000000000000000000000000000001010001 d
#261
02
09
0;
0<
0U
#262
12
19
1;
1<
1U
b0000000000000000000000000000000000000000000000000000000001010010 `
b0000000000000000000000000000000000000000000000000000000001010010 d
#263
02
09
0;
0<
0U
#264
12
19
1;
1<
1U
b0000000000000000000000000000000000000000000000000000000001010011 `
b0000000000000000000000000000000000000000000000000000000001010011 d
#265
02
09
0;
0<
0U
#266
12
19
1;
1<
1U
b0000000000000000000000000000000000000000000000000000000001010100 `
b0000000000000000000000000000000000000000000000000000000001010100 d
#267
02
09
0;
0<
0U
#268
12
19
1;
1<
1U
b0000000000000000000000000000000000000000000000000000000001010101 `
b0000000000000000000000000000000000000000000000000000000001010101 d
#269
02
09
0;
0<
0U
#270
12
19
1;
1<
1U
b0000000000000000000000000000000000000000000000000000000001010110 `
b0000000000000000000000000000000000000000000000000000000001010110 d
#271
02
09
0;
0<
0U
#272
12
19
1;
1<
1U
b0000000000000000000000000000000000000000000000000000000001010111 `
b0000000000000000000000000000000000000000000000000000000001010111 d
#273
02
09
0;
0<
0U
#274
12
19
1;
1<
1U
b0000000000000000000000000000000000000000000000000000000001011000 `
b0000000000000000000000000000000000000000000000000000000001011000 d
#275
02
09
0;
0<
0U
#276
12
19
1;
1<
1U
b0000000000000000000000000000000000000000000000000000000001011001 `
b0000000000000000000000000000000000000000000000000000000001011001 d
#277
02
09
0;
0<
0U
#278
12
19
1;
1<
1U
b0000000000000000000000000000000000000000000000000000000001011010 `
b0000000000000000000000000000000000000000000000000000000001011010 d
#279
02
09
0;
0<
0U
#280
12
19
1;
1<
1U
b0000000000000000000000000000000000000000000000000000000001011011 `
b0000000000000000000000000000000000000000000000000000000001011011 d
#281
02
09
0;
0<
0U
#282
12
19
1;
1<
1U
b0000000000000000000000000000000000000000000000000000000001011100 `
b0000000000000000000000000000000000000000000000000000000001011100 d
#283
02
09
0;
0<
0U
#284
12
19
1;
1<
1U
b0000000000000000000000000000000000000000000000000000000001011101 `
b0000000000000000000000000000000000000000000000000000000001011101 d
#285
02
09
0;
0<
0U
#286
12
19
1;
1<
1U
b0000000000000000000000000000000000000000000000000000000001011110 `
b0000000000000000000000000000000000000000000000000000000001011110 d
#287
02
09
0;
0<
0U
#288
12
19
1;
1<
1U
b0000000000000000000000000000000000000000000000000000000001011111 `
b0000000000000000000000000000000000000000000000000000000001011111 d
#289
02
09
0;
0<
0U
#290
12
19
1;
1<
1U
b0000000000000000000000000000000000000000000000000000000001100000 `
b0000000000000000000000000000000000000000000000000000000001100000 d
#291
02
09
0;
0<
0U
#292
12
19
1;
1<
1U
b0000000000000000000000000000000000000000000000000000000001100001 `
b0000000000000000000000000000000000000000000000000000000001100001 d
#293
02
09
0;
0<
0U
#294
12
19
1;
1<
1U
b0000000000000000000000000000000000000000000000000000000001100010 `
b0000000000000000000000000000000000000000000000000000000001100010 d
#295
02
09
0;
0<
0U
#296
12
19
1;
1<
1U
b0000000000000000000000000000000000000000000000000000000001100011 `
b0000000000000000000000000000000000000000000000000000000001100011 d
#297
02
09
0;
0<
0U
#298
12
19
1;
1<
1U
b0000000000000000000000000000000000000000000000000000000001100100 `
b0000000000000000000000000000000000000000000000000000000001100100 d
#299
02
09
0;
0<
0U
#300
12
19
1;
1<
1U
b0000000000000000000000000000000000000000000000000000000001100101 `
b0000000000000000000000000000000000000000000000000000000001100101 d
#301
02
09
0;
0<
0U
#302
12
19
1;
1<
1U
b0000000000000000000000000000000000000000000000000000000001100110 `
b0000000000000000000000000000000000000000000000000000000001100110 d
#303
02
09
0;
0<
0U
#304
12
19
1;
1<
1U
b0000000000000000000000000000000000000000000000000000000001100111 `
b0000000000000000000000000000000000000000000000000000000001100111 d
#305
02
09
0;
0<
0U
#306
12
19
1;
1<
1U
b0000000000000000000000000000000000000000000000000000000001101000 `
b0000000000000000000000000000000000000000000000000000000001101000 d
#307
02
09
0;
0<
0U
#308
12
19
1;
1<
1U
b0000000000000000000000000000000000000000000000000000000001101001 `
b0000000000000000000000000000000000000000000000000000000001101001 d
#309
02
09
0;
0<
0U
#310
12
19
1;
1<
1U
b0000000000000000000000000000000000000000000000000000000001101010 `
b0000000000000000000000000000000000000000000000000000000001101010 d
#311
02
09
0;
0<
0U
#312
12
19
1;
1<
1U
b0000000000000000000000000000000000000000000000000000000001101011 `
b0000000000000000000000000000000000000000000000000000000001101011 d
#313
02
09
0;
0<
0U
#314
12
19
1;
1<
1U
b0000000000000000000000000000000000000000000000000000000001101100 `
b0000000000000000000000000000000000000000000000000000000001101100 d
#315
02
09
0;
0<
0U
#316
12
19
1;
1<
1U
b0000000000000000000000000000000000000000000000000000000001101101 `
b0000000000000000000000000000000000000000000000000000000001101101 d
#317
02
09
0;
0<
0U
#318
12
19
1;
1<
1U
b0000000000000000000000000000000000000000000000000000000001101110 `
b0000000000000000000000000000000000000000000000000000000001101110 d
#319
02
09
0;
0<
0U
#320
12
19
1;
1<
1U
b0000000000000000000000000000000000000000000000000000000001101111 `
b0000000000000000000000000000000000000000000000000000000001101111 d
#321
02
09
0;
0<
0U
#322
12
19
1;
1<
1U
b0000000000000000000000000000000000000000000000000000000001110000 `
b0000000000000000000000000000000000000000000000000000000001110000 d
#323
02
09
0;
0<
0U
#324
12
19
1;
1<
1U
b0000000000000000000000000000000000000000000000000000000001110001 `
b0000000000000000000000000000000000000000000000000000000001110001 d
#325
02
09
0;
0<
0U
#326
12
19
1;
1<
1U
b0000000000000000000000000000000000000000000000000000000001110010 `
b0000000000000000000000000000000000000000000000000000000001110010 d
#327
02
09
0;
0<
0U
#328
12
19
1;
1<
1U
b0000000000000000000000000000000000000000000000000000000001110011 `
b0000000000000000000000000000000000000000000000000000000001110011 d
#329
02
09
0;
0<
0U
#330
12
19
1;
1<
1U
b0000000000000000000000000000000000000000000000000000000001110100 `
b0000000000000000000000000000000000000000000000000000000001110100 d
#331
02
09
0;
0<
0U
#332
12
19
1;
1<
1U
b0000000000000000000000000000000000000000000000000000000001110101 `
b0000000000000000000000000000000000000000000000000000000001110101 d
#333
02
09
0;
0<
0U
#334
12
19
1;
1<
1U
b0000000000000000000000000000000000000000000000000000000001110110 `
b0000000000000000000000000000000000000000000000000000000001110110 d
#335
02
09
0;
0<
0U
#336
12
19
1;
1<
1U
b0000000000000000000000000000000000000000000000000000000001110111 `
b0000000000000000000000000000000000000000000000000000000001110111 d
#337
02
09
0;
0<
0U
#338
12
19
1;
1<
1U
b0000000000000000000000000000000000000000000000000000000001111000 `
b0000000000000000000000000000000000000000000000000000000001111000 d
#339
02
09
0;
0<
0U
#340
12
19
1;
1<
1U
b0000000000000000000000000000000000000000000000000000000001111001 `
b0000000000000000000000000000000000000000000000000000000001111001 d
#341
02
09
0;
0<
0U
#342
12
19
1;
1<
1U
b0000000000000000000000000000000000000000000000000000000001111010 `
b0000000000000000000000000000000000000000000000000000000001111010 d
#343
02
09
0;
0<
0U
#344
12
19
1;
1<
1U
b0000000000000000000000000000000000000000000000000000000001111011 `
b0000000000000000000000000000000000000000000000000000000001111011 d
#345
02
09
0;
0<
0U
#346
12
19
1;
1<
1U
b0000000000000000000000000000000000000000000000000000000001111100 `
b0000000000000000000000000000000000000000000000000000000001111100 d
#347
02
09
0;
0<
0U
#348
12
19
1;
1<
1U
b0000000000000000000000000000000000000000000000000000000001111101 `
b0000000000000000000000000000000000000000000000000000000001111101 d
#349
02
09
0;
0<
0U
#350
12
19
1;
1<
1U
b0000000000000000000000000000000000000000000000000000000001111110 `
b0000000000000000000000000000000000000000000000000000000001111110 d
#351
02
09
0;
0<
0U
#352
12
19
1;
1<
1U
b0000000000000000000000000000000000000000000000000000000001111111 `
b0000000000000000000000000000000000000000000000000000000001111111 d
#353
02
09
0;
0<
0U
#354
12
19
1;
1<
1U
b0000000000000000000000000000000000000000000000000000000010000000 `
b0000000000000000000000000000000000000000000000000000000010000000 d
#355
02
09
0;
0<
0U
#356
12
19
1;
1<
1U
b0000000000000000000000000000000000000000000000000000000010000001 `
b0000000000000000000000000000000000000000000000000000000010000001 d
#357
02
09
0;
0<
0U
#358
12
19
1;
1<
1U
b0000000000000000000000000000000000000000000000000000000010000010 `
b0000000000000000000000000000000000000000000000000000000010000010 d
#359
02
09
0;
0<
0U
#360
12
19
1;
1<
1U
b0000000000000000000000000000000000000000000000000000000010000011 `
b0000000000000000000000000000000000000000000000000000000010000011 d
#361
02
09
0;
0<
0U
#362
12
19
1;
1<
1U
b0000000000000000000000000000000000000000000000000000000010000100 `
b0000000000000000000000000000000000000000000000000000000010000100 d
#363
02
09
0;
0<
0U
#364
12
19
1;
1<
1U
b0000000000000000000000000000000000000000000000000000000010000101 `
b0000000000000000000000000000000000000000000000000000000010000101 d
#365
02
09
0;
0<
0U
#366
12
19
1;
1<
1U
b0000000000000000000000000000000000000000000000000000000010000110 `
b0000000000000000000000000000000000000000000000000000000010000110 d
#367
02
09
0;
0<
0U
#368
12
19
1;
1<
1U
b0000000000000000000000000000000000000000000000000000000010000111 `
b0000000000000000000000000000000000000000000000000000000010000111 d
#369
02
09
0;
0<
0U
#370
12
19
1;
1<
1U
b0000000000000000000000000000000000000000000000000000000010001000 `
b0000000000000000000000000000000000000000000000000000000010001000 d
#371
02
09
0;
0<
0U
